# This file uses centimeters as units for non-parametric coordinates.

g default
v 2.521705 39.998482 -5.338334
v 1.041620 39.998390 -5.809460
v 1.016438 -39.999130 -5.814734
v -0.353845 -8.008106 -5.909313
v -3.847599 -31.147385 0.156719
v -5.907242 25.987495 0.334329
v 5.645230 39.998390 1.695420
v 5.649762 -26.240589 1.700614
v -1.320320 7.115692 -4.971495
v -2.768448 16.318237 -4.992345
v -5.834173 -40.001610 -1.031365
v -3.889620 21.124634 -4.454897
v -4.239652 9.112373 -1.018424
v -1.813147 31.060654 5.625519
v 5.827797 39.997917 -0.861325
v -2.997315 -40.002018 5.118417
v -2.938405 39.998390 -5.127484
v -5.780138 8.557480 -1.262271
v 1.472695 -8.965744 -5.711980
v -2.391259 -40.000187 -5.410845
v -1.453878 39.998352 5.765620
v 1.318507 -17.687706 -5.756334
v -5.183285 39.998642 2.875519
v 1.928679 -40.001656 -5.583939
v -5.149342 -21.966312 2.919830
v 1.673200 -17.540874 -4.486279
v -2.774260 15.136070 5.225491
v 5.681280 39.997681 -1.577253
v 5.363993 -40.001617 -2.461074
v -3.911288 13.042442 -0.600757
v -4.487249 -39.997845 3.674366
v -5.893001 -24.130941 0.383530
v -1.051658 10.662331 -5.016159
v -5.335325 -22.396385 -2.567253
v -3.651623 28.641945 4.373436
v -5.584765 -32.072418 -1.933987
v 3.108498 -9.944729 -5.012273
v -4.593562 -25.735432 3.550428
v 5.663260 -13.103966 -1.629405
v -3.841735 -28.787556 1.966368
v 4.799753 -36.926056 3.427813
v -0.726941 -15.203655 -5.855116
v 1.171657 38.747879 5.415596
v -3.075481 7.973938 -3.765023
v 2.795274 39.998024 5.200116
v -4.059705 -25.873158 -1.789429
v -2.130232 39.998383 -5.521748
v -3.873839 -39.709141 4.571738
v -1.906748 5.416046 -5.607324
v -2.458531 17.179619 5.165492
v 4.240644 -10.265453 -4.101841
v -2.955753 39.998268 5.141919
v -3.408626 -38.847954 -4.489878
v -5.158404 19.873840 0.829909
v -3.725554 -31.368021 4.263989
v -4.653636 25.249855 1.073632
v -0.773296 -36.331898 5.641421
v -4.265673 12.879715 0.455101
v 1.593079 39.889091 5.662086
v -3.942361 14.082619 3.053346
v 1.957434 -40.001560 5.579909
v -2.698778 19.056671 5.223283
v 1.972822 -33.318108 5.561229
v 0.444265 10.862862 -5.222271
v -0.902977 -40.001648 5.855404
v -5.565872 10.786865 0.787494
v 4.536662 39.998375 -3.759153
v -0.643019 -8.260368 -5.042631
v -0.764270 35.038918 5.580477
v -4.547642 17.416039 -1.134552
v 5.834886 39.996918 0.870081
v -4.755630 12.280960 3.333653
v -0.907119 -35.434921 5.844330
v 3.904701 39.998634 4.423110
v -4.091632 23.048027 -3.214002
v 1.710450 -11.521347 -4.991823
v -0.174650 12.950653 -5.900931
v -0.206566 35.050911 5.904793
v -5.451213 10.063622 2.305836
v 5.126234 39.999557 2.912625
v 1.381455 -33.159534 5.740602
v -5.586738 25.544716 -0.384902
v 0.133336 7.557465 -5.907706
v -5.899657 -32.179466 -0.540809
v 1.000399 -33.974724 5.830339
v 2.791511 -18.748741 -4.398112
v -4.217169 -22.134247 2.882600
v -5.195918 25.186867 2.775665
v 3.349623 39.998383 -4.860380
v -1.922498 31.577637 5.278808
v -4.887198 8.582710 -3.335282
v -2.099015 -16.866959 -5.529992
v -2.425765 24.980270 5.287928
v 0.040233 39.998444 -5.916935
v 5.214059 -18.887508 -2.671883
v -3.114444 22.230751 4.020547
v -0.250087 7.125534 -5.715266
v 5.876009 -24.446777 0.502879
v 2.844996 -11.580780 -4.886952
v -4.491647 23.255219 1.978529
v -3.912246 -25.226730 3.072352
v 4.990693 -40.001572 -3.135363
v -1.247414 -11.914249 -5.753625
v -4.538264 11.025116 1.122582
v -3.933075 -24.491182 4.425205
v 5.355733 -22.223053 -2.459157
v -2.829561 5.363197 -5.201190
v -4.124707 19.722160 2.860180
v -3.413208 -30.357651 -1.947861
v -1.930002 16.068367 -4.361434
v 0.036980 1.254486 -5.704207
v -3.324288 24.771851 3.697418
v -4.624955 23.550903 -1.973927
v -4.298707 10.872955 2.263842
v -0.601027 8.976074 -5.084358
v 3.438710 -10.383228 -4.316946
v -5.901350 -31.607040 0.419861
v -2.207299 15.881012 5.480283
v 1.040532 39.976440 5.811800
v -1.312586 -9.487934 -4.825763
v -5.354359 -30.435015 2.527261
v 0.400234 35.471024 5.890718
v -5.624095 -24.428450 -1.843822
v -3.393825 18.544365 -3.374973
v -4.101177 -30.294880 -0.149773
v -1.346624 6.618149 -5.778319
v -5.690409 39.998177 -1.653944
v 5.793871 -15.686977 -1.068003
v -1.146539 -5.936256 -5.791411
v 0.865156 36.794189 5.838810
v 4.632651 -40.001293 3.341494
v 3.587367 -15.778217 -3.636575
v -2.671207 17.807816 4.501098
v 4.970203 -28.227512 3.173560
v 2.618543 -9.446053 -5.283821
v -2.762626 -16.671455 -5.228334
v -5.139109 19.733063 -0.846499
v -5.668803 39.998230 1.730541
v -4.866711 9.321434 -0.463863
v -2.245757 -9.550846 -5.465303
v 0.866967 9.861839 -5.836504
v -4.562470 27.806976 3.778865
v 4.684821 -15.259197 -2.587672
v -2.960894 13.652313 4.232825
v -4.357215 14.541077 -1.038104
v 4.527453 -10.674236 -3.522936
v -2.713908 15.412300 -3.691365
v -4.380468 28.683731 3.979731
v -4.208049 -27.416101 0.888165
v -4.621037 16.081955 -0.224590
v -5.365299 27.171074 2.559637
v -3.856698 12.632912 4.478125
v -5.589918 23.983757 -1.983520
v 5.688582 -17.481926 -1.563540
v -4.096853 -19.500862 -4.286492
v -2.208822 20.821053 4.627164
v -3.753084 -35.359215 4.570450
v -0.424875 -12.534313 -5.041029
v 5.250115 -21.933430 -2.339297
v -5.522436 24.961159 2.030752
v -1.474198 -40.001495 -5.723144
v -2.820655 23.484314 5.201457
v -2.921368 12.772438 -3.320630
v -4.252957 -24.775282 -1.403532
v 5.929323 -18.241611 -0.370170
v 4.745373 -29.487053 3.502694
v -4.841727 18.958519 1.587272
v -3.988028 -39.931290 -4.396565
v -4.838167 24.256683 -0.403408
v 3.337621 -19.371418 -4.863457
v -3.461927 20.312317 -4.790655
v -5.736204 -21.668068 -1.465522
v -3.679143 -38.563103 4.639627
v -5.514602 -34.730591 -2.155364
v -5.920838 -21.916824 0.002928
v -4.381053 39.998405 -3.976111
v -2.173695 18.307823 5.488673
v -4.509679 21.830948 2.342229
v -5.771118 -22.131783 1.320381
v 1.170000 36.881386 5.440625
v -4.492391 20.287216 -2.428839
v -1.301738 13.715691 -4.655451
v 5.666972 -40.001610 -1.622449
v 5.269432 -17.325459 -1.778568
v -5.320641 -30.560719 -2.578525
v -1.596414 4.131138 -5.699475
v -0.110662 -14.242046 -5.148840
v -3.695767 -31.051456 4.617753
v -4.705095 -24.054237 0.840300
v -3.910846 39.998558 4.442611
v -5.273863 -34.443695 -2.688430
v -4.259679 -18.737835 -4.104924
v -3.756058 12.656158 -1.422292
v 5.336052 -40.001617 2.511363
v 4.450712 -19.993198 -3.873233
v -4.187302 17.411354 2.999489
v -2.649576 18.822144 -3.995098
v -4.502668 14.580574 0.579402
v 3.923954 -18.955276 -3.846324
v 0.571439 -40.002392 5.893929
v -4.131405 -31.491600 4.237812
v -3.436477 -31.686172 -0.784202
v -4.787547 -20.313168 -3.482258
v 5.857341 -40.000980 0.689079
v -1.008357 33.651566 5.825893
v -4.405635 11.618156 3.951461
v 4.410210 39.998848 3.914309
v 5.014102 -20.248550 -3.087821
v -5.545171 -40.001637 2.097965
v -4.430572 -24.499020 -0.298748
v 3.806552 -40.001900 -4.519668
v -0.104732 -3.060608 -5.694856
v -2.824569 23.633133 4.283998
v -3.478906 -18.251324 -4.776237
v 3.426816 -32.478683 4.604028
v -3.457016 22.291420 4.570615
v 3.948168 -32.629150 4.410482
v -1.898475 8.959938 -4.625217
v 4.370514 -17.385437 -2.766104
v -5.329295 -31.910023 -2.557294
v 5.877585 -23.719257 -0.456054
v -2.727008 -36.786880 5.241364
v 3.719609 -40.001526 4.583778
v 4.054039 39.998390 -4.284083
v 0.338950 1.102768 -5.892026
v 2.943106 -15.490826 -4.288048
v -5.859955 39.998459 -0.826782
v -1.215403 35.033768 5.799612
v 4.466642 -29.169746 3.539933
v -2.268620 13.390480 -4.010308
v -4.926080 28.316124 3.281274
v -2.272195 16.336403 -5.455632
v 1.601441 36.709259 5.680458
v 4.759715 -19.098309 -2.690158
v -1.188261 -14.947765 -5.633298
v 4.229278 -14.098518 -3.637800
v 4.424074 -39.992252 3.907891
v -4.932967 39.998405 -3.271915
v -3.689079 25.137115 4.214024
v -3.705081 8.807404 -2.975968
v 5.723920 -22.333061 -1.439409
v 5.430052 -11.961086 -2.293766
v -5.712704 -22.944450 1.647613
v -1.234259 4.264015 -5.544169
v -5.365978 8.427200 -2.495841
v -4.142488 -33.038063 -4.220081
v 1.057797 -16.595238 -4.849241
v -5.739435 25.922455 1.210590
v 4.287221 -36.134869 4.071169
v -3.147870 26.765381 5.008282
v -5.046509 10.973389 2.876540
v -3.129642 25.582024 5.062773
v -4.124349 8.894371 -2.184243
v -4.987351 -31.744703 -2.014646
v 2.866834 -40.001625 -5.159656
v -1.744854 -15.006428 -5.660723
v 2.591921 -9.731213 -4.633433
v -5.921474 -39.998795 -0.067713
v -4.698428 -29.491144 -2.139421
v 0.452251 -17.254333 -5.887200
v -5.119864 -30.406290 1.910526
v 5.695653 -22.990112 -1.556915
v -5.068298 23.938881 -3.052546
v -5.765805 26.953705 1.372442
v -4.904003 -36.268658 -3.336683
v -0.459687 2.680885 -5.573545
v -4.638762 17.162292 2.214192
v -5.002641 -40.001949 -3.207874
v -2.757759 7.312901 -4.980367
v -5.408278 -26.583263 -2.374128
v -4.659545 9.965363 0.157753
v -3.611094 24.015633 4.663033
v 4.353833 -37.122116 3.522156
v -2.862431 -37.956863 5.183949
v 2.209286 -18.847298 -5.471916
v -3.309307 -31.806126 -1.679600
v 5.375994 39.998291 -2.428924
v -1.061087 39.998390 -5.814973
v -5.442184 -21.542053 -2.326610
v -4.760913 -22.749908 2.001991
v -3.762840 6.892216 -4.580873
v -3.776648 -24.131882 3.524971
v -5.762027 10.374771 1.382713
v -0.694242 -7.963123 -5.515701
v -4.364034 -25.508244 1.408982
v -5.130292 27.613052 2.479002
v 1.820354 -16.306175 -4.374170
v -2.061842 -38.459316 5.535490
v -2.491157 17.142097 -4.067285
v -5.148696 -21.776634 -2.448774
v -4.320978 13.603714 2.120090
v -1.021085 -37.473587 5.818537
v -4.112722 -27.683388 1.910355
v -2.729357 5.758842 -5.028343
v -0.710382 -5.442520 -5.583036
v -4.833733 -21.800266 3.409605
v -4.146331 25.039986 3.785574
v 0.009559 -33.890900 5.908382
v 2.388319 -13.947620 -4.996146
v -3.336255 -18.451565 -4.714601
v -5.906707 9.909355 0.273389
v -3.648293 14.159622 -2.083361
v 3.714281 -12.323025 -4.449378
v -4.049779 12.437088 2.848769
v 5.337463 -27.394718 2.505801
v -3.292914 -35.538597 4.572638
v -0.368973 -2.248207 -5.905690
v 5.409307 -14.125126 -1.495251
v -0.393218 1.332401 -5.918891
v 4.779442 -38.978485 3.451340
v -3.792591 21.834892 -3.524665
v 0.648617 -12.832420 -5.236276
v -4.044873 -29.602610 0.972321
v -2.703678 21.339142 4.962804
v -3.726522 7.499554 -4.422359
v 0.206858 8.902222 -5.734699
v -3.442696 12.210938 -2.355945
v -4.782465 -35.522614 -3.484671
v 4.420919 -29.073496 3.912036
v -3.573911 14.828293 -2.674027
v 4.596191 -12.277267 -3.632923
v -0.550704 -40.001381 -5.886759
v -0.466228 -10.536469 -4.837992
v -4.901916 -29.727024 3.327897
v -0.512889 7.298939 -5.165408
v -5.658916 -22.280537 -1.887186
v 5.232244 -28.516960 2.734016
v -4.626104 -29.427156 3.709484
v -5.929323 -22.554207 -0.067281
v -4.926893 17.031334 1.246773
v -5.185002 -34.552574 -2.301036
v -0.040958 -1.170021 -5.495665
v 0.096402 39.999908 5.914477
v -2.044015 -39.902119 5.545886
v -5.569836 -22.036293 -1.146824
v 5.892752 -40.001011 -0.182892
v 2.634666 -33.353722 5.280692
v -3.881784 10.722328 -1.397149
v -3.404501 20.833824 -3.453541
v -0.775655 14.992432 -4.954857
v -1.199564 -10.615009 -5.591589
v 5.763394 -23.617847 -0.140326
v -5.652824 25.898262 0.708811
v 0.217569 -14.970795 -5.178037
v 5.879470 -23.069103 -0.408418
v -3.098109 -39.810684 -5.029409
v -2.346577 -38.089428 5.197437
v -4.165081 18.720703 -2.337072
v -4.433728 7.631256 -3.912611
v 5.809635 -24.201561 0.981206
v -5.748164 -31.041672 1.448242
v 3.281770 -32.289131 4.909356
v 2.926664 -16.960472 -3.940557
v -0.315448 13.833885 -5.035051
v 4.769790 -10.038994 -3.463343
v -3.987703 11.286278 -0.353515
v -4.396838 23.241165 -3.502565
v -4.827791 23.582664 0.602260
v 0.005831 36.042580 5.918891
v -0.731919 3.972198 -5.864854
v 0.304653 -2.370747 -5.895877
v -5.796376 -23.856682 -1.272838
v 5.320836 -15.806923 -1.101672
v -4.078187 22.594536 -4.280190
v 5.705191 -24.441648 0.802684
v -4.954833 18.232834 -0.356524
v -3.244596 13.854820 4.809477
v -5.864545 39.998421 0.811201
v -2.106062 10.890968 -4.504531
v -0.149526 2.641392 -5.897349
v -0.465653 -5.661678 -5.880268
v -4.708387 -20.019444 -3.284467
v 2.519931 -32.781113 5.335454
v -2.168360 19.564865 4.780177
v -2.604481 26.764557 5.029174
v 0.774890 -33.414299 5.852845
v -3.727956 -29.551310 -1.929485
v 3.400340 39.998390 4.818761
v 5.573977 -26.514992 1.532483
v -3.049034 -18.380970 -5.073442
v -3.635338 39.998383 -4.674230
v -4.644427 -29.581713 3.351647
v -2.201280 22.489174 5.485558
v -3.162304 17.562691 -4.656475
v -3.615943 28.286926 4.709820
v -5.739152 -32.183678 -1.433456
v -2.867093 16.906837 -5.173189
v -3.780896 24.950928 3.115640
v 5.697333 -27.147007 1.563524
v 5.886337 40.002388 -0.296990
v -5.093246 -20.107769 -3.016422
v -1.542256 -12.606964 -5.681551
v 4.578697 -18.937500 -3.159948
v -3.045867 6.915878 -5.081268
v -2.217191 -34.640514 5.477928
v 1.749513 -13.390759 -5.185892
v -2.831069 29.485901 5.215143
v 3.858976 -19.347057 -4.456973
v -3.465626 24.525589 4.407431
v -4.807936 21.172386 -1.867846
v 1.696486 39.997757 -5.654622
v 0.024002 7.869999 -5.137378
v -5.587622 -40.000015 -1.957834
v -1.797839 -37.660618 5.634192
v -2.696326 10.422829 -3.983694
v 5.151407 -11.592293 -2.866119
v -3.184695 20.154427 3.871940
v -3.855364 -37.101395 -4.243436
v -4.001331 21.247658 3.094747
v 3.876674 -31.583599 4.442756
v -5.851019 -40.002220 0.924622
v -3.811477 -28.057314 2.809627
v -5.870610 -21.782368 -0.742181
v -5.199182 10.546402 2.192068
v 5.431675 39.998405 2.287911
v -4.150213 -37.328293 -4.209256
v 0.082416 -16.128029 -5.722747
v -0.054725 -34.977196 5.905289
v 3.994512 -31.555723 4.157785
v -3.234439 -35.081581 4.947263
v -1.705788 -8.690746 -5.654395
v -2.802276 28.646034 5.222062
v -5.356177 39.998337 -2.518327
v -1.549825 15.341858 -5.702546
v -4.873317 16.648415 0.074796
v -1.804235 -39.105011 5.502180
v -3.627594 -33.174316 -4.665874
v -4.506490 -25.685211 3.854190
v -4.524745 39.997452 3.817573
v -5.885872 25.793655 -0.694924
v -0.162478 -11.688808 -4.978204
v -5.397078 -22.779072 1.954445
v -5.381888 -31.841700 -0.537258
v -4.738146 15.765877 1.243070
v -0.801685 14.879311 -5.851751
v -0.168048 12.346680 -5.684020
v -5.364994 27.951462 2.510123
v -3.377480 19.568336 -4.431396
v 3.654630 -10.156399 -4.627855
v -4.043929 -27.306000 -2.014358
v -3.915213 -24.267685 3.864665
v -3.777909 -36.978363 -4.551385
v -5.401510 -24.425570 -1.486228
v -4.920910 8.739426 -1.711676
v -5.490857 -32.250881 -1.626116
v -5.217372 19.922691 -0.179038
v -5.516499 -22.380913 2.154426
v 4.977271 -21.210484 -3.166087
v 5.792822 -14.073891 -1.075609
v 3.614037 -16.648029 -3.446911
v -0.851643 14.559380 -5.646674
v 5.661016 -40.001698 1.659741
v -4.557290 -33.991188 -3.764014
v 4.924825 39.998383 -3.242623
v -5.442861 -23.404613 -1.703661
v 1.714717 -9.310482 -4.830948
v -5.032819 10.690468 3.125224
v 5.003184 -17.252300 -1.709458
v -3.869551 -33.216949 -4.154231
v 0.242888 -8.460220 -5.038069
v -3.538577 12.852463 3.641396
v -1.295275 -15.455814 -5.764858
v 1.038265 35.853241 5.812205
v -4.008678 -29.903652 -0.943164
v 3.387208 -32.883148 4.833328
v -3.772863 29.032600 4.557367
v -3.423440 12.816025 4.819646
v -2.418692 23.344887 5.161087
v -4.180635 -25.574421 2.285085
v -2.124914 7.505516 -4.564592
v -5.637735 -22.321030 0.561500
v -1.695097 -37.932968 5.468189
v 3.524738 -14.012680 -4.232436
v 4.577838 -40.001732 -3.720020
v 0.864832 -8.479546 -5.841441
v -1.264902 -13.679302 -5.709482
v -3.608056 13.015335 4.215415
v -4.575963 -22.711536 3.747597
v -2.577150 22.004410 5.223769
v -3.561355 -34.327187 -4.714147
v -4.460832 13.389534 1.219124
v 4.397511 -39.092793 3.571637
v 2.253988 -14.695343 -4.747734
v -4.772090 25.376450 -0.046581
v -3.591461 -38.949905 4.431396
v 4.082767 -18.359581 -3.615527
v -4.841644 24.013199 -1.329470
v -4.523932 10.854500 0.683719
v -0.288989 -14.786072 -5.088089
v -3.196413 14.729393 -3.012220
v 4.773629 39.998375 3.458139
v -3.590571 9.660294 -2.891270
v 0.370077 -40.001625 -5.893382
v -3.772883 -29.954706 2.039990
v -3.389241 18.825859 -4.739213
v -4.152379 11.390945 2.667761
v -5.034138 -40.002239 3.112407
v -4.138367 14.737091 -1.709740
v -2.283514 29.240738 5.090781
v -3.506641 -29.331057 2.762311
v -4.539951 -39.507710 3.796149
v -5.630823 8.441170 -1.826636
v -3.766817 -39.201424 -4.551571
v -3.887343 21.064827 -4.119024
v 4.596897 -20.059040 -3.340401
v -5.222283 -26.856739 -2.187278
v -4.888319 20.730835 1.754252
v -2.659952 29.144218 5.086319
v -3.255727 22.473198 4.926436
v 0.212097 -34.114105 5.697793
v 5.066349 -28.155018 2.652823
v -4.640985 23.657501 -3.670758
v -4.635198 25.500992 3.688775
v -3.945994 12.557892 -0.116286
v -5.921372 39.998367 -0.014371
v 4.889016 -13.477428 -3.057027
v -1.111357 -7.886875 -5.805273
v 0.568762 9.823883 -5.222002
v -4.694742 -19.414719 -3.596723
v 5.002703 -40.002190 3.117253
v -4.843155 22.995064 -1.199394
v -2.153576 16.219276 4.807032
v 2.989101 -40.001896 5.089339
v -4.655694 23.661240 -1.146238
v -5.908088 9.180794 -0.409742
v -0.637217 -35.504906 5.645302
v 2.020960 39.996964 5.544466
v -3.236114 6.796021 -4.569655
v -4.741856 -35.692745 -3.108929
v -4.134599 25.225357 4.220013
v 0.597428 10.718857 -5.863246
v -5.075108 18.274803 0.476425
v -5.105859 25.543564 1.054796
v -2.329517 16.060173 5.187048
v -5.331678 -25.649818 -1.979202
v 5.823675 -40.000954 -0.907452
v -5.878175 -22.022854 0.676956
v -5.880110 9.807732 0.664079
v -0.218584 12.832481 -5.083164
v -0.252840 -16.344036 -5.903220
v 0.432804 -10.113605 -4.812675
v -5.633932 25.652946 1.784251
v 5.213455 -19.948730 -2.705676
v -3.744817 17.404785 3.562845
v 4.145159 -35.198761 3.865999
v 5.360299 -21.419174 -2.450526
v -4.497324 24.638229 1.857867
v 1.361383 -9.178909 -4.749558
v -3.410091 22.985466 4.656888
v 4.655158 -16.687172 -2.283500
v 0.791572 36.194275 5.550992
v -5.554403 -31.331591 0.361696
v -5.351828 -30.111433 -2.271555
v 2.758161 -19.089527 -5.210717
v -5.326301 -28.814222 -2.567476
v 2.095252 -9.124340 -5.515908
vt 0.767869 0.227230
vt 0.952428 0.222204
vt 0.952527 0.233247
vt 0.788381 0.212141
vt 0.767150 0.240617
vt 0.951726 0.212099
vt 0.783478 0.208537
vt 0.952455 0.243539
vt 0.757178 0.247717
vt 0.951951 0.202346
vt 0.789813 0.200577
vt 0.762410 0.218526
vt 0.763318 0.249111
vt 0.787595 0.195894
vt 0.952240 0.254144
vt 0.750853 0.258627
vt 0.951508 0.192486
vt 0.800382 0.188666
vt 0.738406 0.249628
vt 0.805580 0.173828
vt 0.951881 0.266197
vt 0.732730 0.258161
vt 0.752231 0.244402
vt 0.950822 0.181289
vt 0.787226 0.190101
vt 0.810161 0.175032
vt 0.734270 0.261622
vt 0.715427 0.264277
vt 0.718305 0.233663
vt 0.757018 0.227852
vt 0.799544 0.174138
vt 0.778950 0.192056
vt 0.813765 0.165077
vt 0.724717 0.267976
vt 0.702847 0.258829
vt 0.729171 0.226571
vt 0.725405 0.250457
vt 0.949621 0.166612
vt 0.784119 0.183683
vt 0.803804 0.158360
vt 0.774561 0.202878
vt 0.686720 0.276062
vt 0.707132 0.268573
vt 0.711587 0.214662
vt 0.697852 0.248738
vt 0.749643 0.218045
vt 0.777460 0.180388
vt 0.778027 0.160771
vt 0.812828 0.146594
vt 0.772378 0.191126
vt 0.948241 0.153161
vt 0.951647 0.276046
vt 0.682621 0.262915
vt 0.683911 0.219960
vt 0.698533 0.234118
vt 0.757522 0.217403
vt 0.776959 0.172335
vt 0.773338 0.153083
vt 0.807339 0.143848
vt 0.752904 0.196507
vt 0.816257 0.155262
vt 0.691994 0.269962
vt 0.762371 0.208072
vt 0.692888 0.209915
vt 0.653738 0.243429
vt 0.770969 0.157552
vt 0.815123 0.132849
vt 0.749331 0.179956
vt 0.947057 0.143078
vt 0.679623 0.276338
vt 0.661342 0.259370
vt 0.650235 0.221014
vt 0.673870 0.205401
vt 0.692763 0.200196
vt 0.652368 0.229647
vt 0.788012 0.138047
vt 0.808990 0.133964
vt 0.732259 0.176466
vt 0.765652 0.181288
vt 0.818200 0.146097
vt 0.679456 0.283573
vt 0.668991 0.271884
vt 0.712429 0.206803
vt 0.667115 0.209630
vt 0.652475 0.249331
vt 0.645112 0.236517
vt 0.719051 0.183729
vt 0.764770 0.163716
vt 0.945317 0.129753
vt 0.666651 0.292195
vt 0.637643 0.266513
vt 0.710401 0.195069
vt 0.648428 0.200820
vt 0.661748 0.191792
vt 0.676955 0.191527
vt 0.723689 0.166138
vt 0.820139 0.133773
vt 0.641873 0.280782
vt 0.631818 0.217947
vt 0.698489 0.186388
vt 0.629729 0.255190
vt 0.705194 0.169196
vt 0.762294 0.155324
vt 0.609283 0.274638
vt 0.627411 0.228780
vt 0.626003 0.211836
vt 0.629201 0.203044
vt 0.676687 0.179431
vt 0.602479 0.265440
vt 0.622900 0.241692
vt 0.709359 0.153662
vt 0.733065 0.150748
vt 0.611931 0.215745
vt 0.634390 0.192473
vt 0.636147 0.180173
vt 0.593176 0.248838
vt 0.677921 0.159139
vt 0.749580 0.148228
vt 0.588177 0.279566
vt 0.605657 0.229582
vt 0.605678 0.201130
vt 0.607370 0.194915
vt 0.641257 0.166807
vt 0.678630 0.168124
vt 0.582714 0.249742
vt 0.715872 0.140061
vt 0.682439 0.140988
vt 0.761286 0.146108
vt 0.742381 0.142073
vt 0.571033 0.278726
vt 0.588434 0.225140
vt 0.596287 0.209610
vt 0.622339 0.170057
vt 0.573714 0.263262
vt 0.584039 0.238391
vt 0.722988 0.134568
vt 0.635782 0.146996
vt 0.754685 0.142963
vt 0.769525 0.149426
vt 0.735101 0.143212
vt 0.606849 0.180089
vt 0.627012 0.157528
vt 0.702798 0.137564
vt 0.663343 0.133828
vt 0.771861 0.137030
vt 0.736813 0.138624
vt 0.611459 0.174718
vt 0.696487 0.131234
vt 0.625277 0.149175
vt 0.674177 0.130720
vt 0.660254 0.128977
vt 0.747647 0.132816
vt 0.786237 0.131671
vt 0.614602 0.162770
vt 0.730154 0.130531
vt 0.634276 0.139062
vt 0.734555 0.124710
vt 0.686657 0.124819
vt 0.622041 0.140210
vt 0.658690 0.124282
vt 0.648326 0.131353
vt 0.745194 0.128749
vt 0.619091 0.146593
vt 0.071650 0.133449
vt 0.117231 0.140431
vt 0.052543 0.126500
vt 0.606398 0.155249
vt 0.192474 0.144587
vt 0.111746 0.143814
vt 0.064512 0.136294
vt 0.597558 0.167024
vt 0.175983 0.152670
vt 0.131547 0.155233
vt 0.036680 0.122206
vt 0.212958 0.155783
vt 0.600988 0.169952
vt 0.224253 0.160898
vt 0.193416 0.151996
vt 0.128445 0.159372
vt 0.043037 0.115055
vt 0.596881 0.179367
vt 0.223402 0.167828
vt 0.174853 0.155805
vt 0.215818 0.165702
vt 0.194765 0.156685
vt 0.590035 0.177535
vt 0.182670 0.163004
vt 0.149983 0.167949
vt 0.592088 0.188613
vt 0.220048 0.177865
vt 0.210343 0.176530
vt 0.596259 0.195443
vt 0.215238 0.181140
vt 0.178776 0.172563
vt 0.223135 0.188179
vt 0.585355 0.196898
vt 0.155642 0.177651
vt 0.179755 0.182749
vt 0.586792 0.201358
vt 0.221217 0.197738
vt 0.143137 0.177220
vt 0.195635 0.189816
vt 0.224511 0.195888
vt 0.226440 0.203821
vt 0.213990 0.186211
vt 0.157971 0.188119
vt 0.136420 0.170607
vt 0.187543 0.201631
vt 0.577972 0.209146
vt 0.217919 0.205408
vt 0.134965 0.187572
vt 0.129654 0.177745
vt 0.227564 0.212614
vt 0.223448 0.217941
vt 0.202674 0.200683
vt 0.128579 0.198894
vt 0.570127 0.218960
vt 0.218845 0.225903
vt 0.201969 0.218539
vt 0.133070 0.207076
vt 0.228017 0.221241
vt 0.223793 0.234748
vt 0.193442 0.220497
vt 0.182753 0.213311
vt 0.116489 0.207037
vt 0.118708 0.197760
vt 0.568047 0.225486
vt 0.227903 0.231861
vt 0.205525 0.225278
vt 0.170598 0.216961
vt 0.133847 0.217654
vt 0.243590 0.240892
vt 0.215420 0.235490
vt 0.192836 0.226081
vt 0.126316 0.217564
vt 0.567727 0.233569
vt 0.244170 0.246305
vt 0.240131 0.247643
vt 0.178119 0.227498
vt 0.156329 0.219405
vt 0.114967 0.215138
vt 0.060752 0.247231
vt 0.166754 0.233146
vt 0.248156 0.259536
vt 0.073551 0.236519
vt 0.139945 0.235306
vt 0.163584 0.230836
vt 0.261308 0.269618
vt 0.078152 0.251349
vt 0.119359 0.235370
vt 0.057781 0.243177
vt 0.261011 0.274355
vt 0.088475 0.258476
vt 0.042880 0.264180
vt 0.103300 0.234914
vt 0.040914 0.260644
vt 0.070727 0.231992
vt 0.124889 0.232945
vt 0.133341 0.227971
vt 0.278418 0.286497
vt 0.087036 0.266495
vt 0.073525 0.267480
vt 0.105944 0.227081
vt 0.099011 0.226452
vt 0.067039 0.228140
vt 0.302323 0.296755
vt 0.009011 0.274173
vt 0.085635 0.260696
vt 0.096659 0.222187
vt 0.295444 0.296025
vt 0.020212 0.266447
vt 0.095074 0.219136
vt 0.943342 0.430031
vt 0.942811 0.439853
vt 0.173278 0.006877
vt 0.937600 0.018585
vt 0.199649 0.427306
vt 0.160692 0.016836
vt 0.196147 0.425242
vt 0.267504 0.411874
vt 0.937156 0.026654
vt 0.151204 0.019371
vt 0.169131 0.005258
vt 0.944165 0.416516
vt 0.151366 0.025663
vt 0.204984 0.414089
vt 0.163673 0.435434
vt 0.211615 0.410791
vt 0.938031 0.034151
vt 0.140366 0.032177
vt 0.194930 0.422218
vt 0.943657 0.409962
vt 0.141930 0.036344
vt 0.146061 0.019429
vt 0.202710 0.411117
vt 0.219767 0.399217
vt 0.013097 0.428418
vt 0.297098 0.403498
vt 0.938332 0.040936
vt 0.013376 0.017242
vt 0.113024 0.041687
vt 0.012759 0.418320
vt 0.209919 0.398224
vt 0.222495 0.388027
vt 0.012633 0.006740
vt 0.315865 0.403528
vt 0.938666 0.049288
vt 0.013728 0.025164
vt 0.113100 0.045045
vt 0.012338 0.409880
vt 0.229361 0.387223
vt 0.275357 0.397667
vt 0.944891 0.401603
vt 0.315205 0.396573
vt 0.026373 0.029545
vt 0.102208 0.050679
vt 0.011838 0.401354
vt 0.218813 0.387100
vt 0.242272 0.379317
vt 0.277929 0.392374
vt 0.327886 0.396973
vt 0.105336 0.053789
vt 0.050024 0.029085
vt 0.011291 0.390933
vt 0.229486 0.377894
vt 0.246579 0.383748
vt 0.258889 0.384485
vt 0.342985 0.389037
vt 0.324988 0.378096
vt 0.938998 0.056755
vt 0.135667 0.029858
vt 0.099805 0.063918
vt 0.243901 0.373697
vt 0.945714 0.391110
vt 0.339942 0.371279
vt 0.303490 0.379703
vt 0.939339 0.065096
vt 0.100372 0.044080
vt 0.093071 0.070752
vt 0.010769 0.381920
vt 0.243502 0.367710
vt 0.257634 0.378989
vt 0.348315 0.381699
vt 0.318232 0.367637
vt 0.286496 0.381437
vt 0.010321 0.373525
vt 0.257298 0.362971
vt 0.258327 0.373329
vt 0.946505 0.380281
vt 0.359076 0.370582
vt 0.319721 0.357140
vt 0.286671 0.363507
vt 0.297338 0.361767
vt 0.009644 0.360503
vt 0.250440 0.358252
vt 0.277770 0.375266
vt 0.366729 0.373545
vt 0.339713 0.357271
vt 0.301931 0.351698
vt 0.264881 0.365878
vt 0.947026 0.372746
vt 0.362518 0.353727
vt 0.365411 0.363957
vt 0.319831 0.341490
vt 0.283129 0.353749
vt 0.250067 0.350827
vt 0.347244 0.345504
vt 0.310329 0.341570
vt 0.009095 0.347153
vt 0.947564 0.364405
vt 0.287301 0.328938
vt 0.253929 0.343263
vt 0.367648 0.354873
vt 0.290874 0.339799
vt 0.948194 0.353731
vt 0.277108 0.338245
vt 0.370721 0.347182
vt 0.270680 0.325805
vt 0.288181 0.312612
vt 0.257011 0.336415
vt 0.303610 0.315953
vt 0.261724 0.349242
vt 0.571333 0.244194
vt 0.251574 0.249064
vt 0.560366 0.252516
vt 0.560844 0.261684
vt 0.259160 0.256856
vt 0.553271 0.263143
vt 0.264584 0.268787
vt 0.284062 0.278391
vt 0.538204 0.275675
vt 0.006559 0.160035
vt 0.113630 0.170849
vt 0.005406 0.173725
vt 0.124640 0.161115
vt 0.104891 0.183758
vt 0.114762 0.177005
vt 0.014381 0.150700
vt 0.004883 0.188712
vt 0.008727 0.149886
vt 0.108346 0.147877
vt 0.098743 0.195927
vt 0.028155 0.138174
vt 0.102968 0.195828
vt 0.005016 0.201083
vt 0.065031 0.140896
vt 0.093670 0.207736
vt 0.037190 0.128003
vt 0.005376 0.213023
vt 0.099903 0.207176
vt 0.005953 0.224750
vt 0.006202 0.241248
vt 0.049806 0.243984
vt 0.006795 0.259808
vt 0.037379 0.257490
vt 0.015350 0.263073
vt 0.630352 0.306960
vt 0.611250 0.308677
vt 0.633316 0.297482
vt 0.611126 0.317409
vt 0.655949 0.298830
vt 0.637818 0.308297
vt 0.599971 0.310920
vt 0.644048 0.293982
vt 0.600390 0.320560
vt 0.655918 0.288142
vt 0.660249 0.300978
vt 0.587937 0.313271
vt 0.577857 0.304413
vt 0.571375 0.312100
vt 0.570375 0.299846
vt 0.565736 0.306661
vt 0.833179 0.120394
vt 0.814852 0.128352
vt 0.841937 0.122888
vt 0.764300 0.128183
vt 0.862964 0.110682
vt 0.880637 0.108098
vt 0.939564 0.085811
vt 0.902910 0.090495
vt 0.924004 0.084016
vt 0.902975 0.085209
vt 0.894768 0.090064
vt 0.295592 0.397827
vt 0.279903 0.389627
vt 0.047694 0.033932
vt 0.014271 0.037592
vt 0.024922 0.033998
vt 0.059065 0.040108
vt 0.014084 0.030451
vt 0.069882 0.038624
vt 0.014150 0.048658
vt 0.096887 0.052901
vt 0.014325 0.058583
vt 0.092112 0.062721
vt 0.013774 0.137332
vt 0.023059 0.137607
vt 0.032667 0.117437
vt 0.014007 0.125279
vt 0.557352 0.272966
vt 0.543500 0.276152
vt 0.554080 0.268350
vt 0.542687 0.287060
vt 0.529821 0.293724
vt 0.529174 0.299883
vt 0.514344 0.303564
vt 0.577563 0.228293
vt 0.587286 0.215918
vt 0.562958 0.274354
vt 0.568437 0.289889
vt 0.558490 0.293143
vt 0.379324 0.312802
vt 0.381807 0.326756
vt 0.370801 0.330330
vt 0.391113 0.307170
vt 0.367536 0.341006
vt 0.371280 0.326332
vt 0.389019 0.301975
vt 0.382123 0.303422
vt 0.379001 0.290209
vt 0.008219 0.316570
vt 0.007720 0.294967
vt 0.008946 0.305843
vt 0.948497 0.332066
vt 0.949473 0.324205
vt 0.948792 0.342491
vt 0.008969 0.324139
vt 0.008683 0.335116
vt 0.381256 0.334153
vt 0.377215 0.340750
vt 0.388108 0.319596
vt 0.456377 0.313963
vt 0.950130 0.312499
vt 0.497175 0.314199
vt 0.416940 0.305747
vt 0.514494 0.308680
vt 0.419143 0.301619
vt 0.470276 0.309177
vt 0.498459 0.309817
vt 0.448172 0.308520
vt 0.950777 0.299641
vt 0.412864 0.296080
vt 0.456027 0.304536
vt 0.497918 0.304228
vt 0.390577 0.296657
vt 0.951309 0.286672
vt 0.526277 0.290455
vt 0.366635 0.284269
vt 0.368017 0.297135
vt 0.353756 0.296296
vt 0.303027 0.290850
vt 0.355972 0.307265
vt 0.339424 0.295944
vt 0.330972 0.293054
vt 0.342273 0.310902
vt 0.317720 0.296215
vt 0.360997 0.316783
vt 0.345448 0.332220
vt 0.332068 0.307781
vt 0.329235 0.320140
vt 0.312005 0.311490
vt 0.324340 0.333172
vt 0.305985 0.309758
vt 0.298700 0.302553
vt 0.285180 0.308028
vt 0.274851 0.316001
vt 0.007338 0.283599
vt 0.078710 0.120380
vt 0.068247 0.104578
vt 0.879857 0.101275
vt 0.057390 0.103356
vt 0.086030 0.093979
vt 0.039273 0.113562
vt 0.067196 0.101033
vt 0.885097 0.094145
vt 0.025772 0.113762
vt 0.072230 0.094034
vt 0.894251 0.099563
vt 0.092124 0.085100
vt 0.083231 0.090943
vt 0.043886 0.104721
vt 0.882663 0.112783
vt 0.890293 0.086619
vt 0.016118 0.115363
vt 0.084232 0.082125
vt 0.014988 0.103210
vt 0.941051 0.095657
vt 0.942976 0.112104
vt 0.901121 0.079909
vt 0.095080 0.077942
vt 0.014698 0.086905
vt 0.014727 0.071190
vt 0.938283 0.079627
vt 0.939703 0.074986
vt 0.589581 0.296383
vt 0.608427 0.289838
vt 0.171831 0.434958
vt 0.161010 0.004883
vt 0.176005 0.435769
vt 0.012637 0.439857
vt 0.937301 0.011276
vn -0.942716 -0.075285 -0.324990
vn -0.957501 0.000872 -0.288430
vn -0.905427 0.001050 -0.424501
vn 0.303324 0.002184 -0.952885
vn 0.433617 0.000275 -0.901097
vn 0.361338 -0.001398 -0.932434
vn -0.118067 -0.021937 -0.992763
vn 0.031489 0.015466 -0.999384
vn 0.188117 -0.004778 -0.982135
vn -0.386996 -0.000116 0.922082
vn -0.447622 0.007773 0.894189
vn -0.440186 0.007130 0.897878
vn 0.088858 0.004728 0.996033
vn -0.016775 0.011226 0.999796
vn -0.032190 -0.002241 0.999479
vn 0.992047 0.000405 0.125865
vn 0.961852 0.000087 0.273569
vn 0.939777 -0.002397 0.341780
vn 0.982438 -0.003067 0.186565
vn -0.263274 -0.017675 -0.964559
vn -0.648029 -0.013249 -0.761500
vn -0.613795 0.000397 -0.789465
vn -0.574042 -0.010179 -0.818763
vn 0.008837 0.012890 -0.999878
vn 0.172345 0.000206 -0.985037
vn -0.875453 -0.396419 0.276469
vn -0.876914 -0.025412 0.479975
vn -0.549026 -0.620536 0.559916
vn -0.932690 -0.016121 -0.360318
vn -0.896610 0.004013 -0.442803
vn -0.873816 -0.006846 -0.486208
vn -0.923878 0.067930 -0.376610
vn -0.876973 0.160613 -0.452904
vn -0.963191 0.135467 -0.232190
vn -0.997119 0.064818 -0.039411
vn -0.996665 0.035391 -0.073526
vn -0.999828 -0.018534 -0.001191
vn -0.877829 -0.048559 0.476506
vn -0.833355 -0.002918 0.552730
vn -0.911948 -0.031551 0.409091
vn -0.937881 -0.013230 -0.346705
vn -0.978919 -0.169292 -0.114271
vn -0.942940 -0.008832 -0.332846
vn -0.306632 0.001664 0.951827
vn -0.182758 -0.042679 0.982231
vn -0.001083 -0.073829 0.997270
vn -0.532638 -0.796082 -0.287316
vn -0.854132 -0.423423 0.301947
vn -0.798005 -0.600725 0.048144
vn 0.961277 0.000141 -0.275584
vn 0.988027 0.001166 -0.154275
vn 0.964267 -0.009516 -0.264762
vn -0.243069 -0.024862 0.969690
vn -0.229425 0.016662 0.973184
vn -0.198858 -0.002075 0.980026
vn -0.490780 0.000209 -0.871284
vn -0.341157 0.000653 -0.940006
vn -0.462346 -0.010333 -0.886639
vn -0.832564 0.071102 -0.549346
vn -0.809179 0.481082 -0.337328
vn -0.252028 0.942010 -0.221584
vn -0.166117 0.807678 -0.565740
vn 0.160086 -0.017831 -0.986942
vn 0.336455 -0.137614 -0.931590
vn 0.603449 0.179962 -0.776829
vn 0.931164 -0.004007 -0.364578
vn 0.965322 -0.008613 -0.260919
vn -0.384422 -0.000742 -0.923157
vn -0.353419 0.024878 -0.935134
vn -0.247959 -0.000759 -0.968770
vn -0.478885 0.008211 -0.877839
vn -0.486921 -0.023876 0.873120
vn -0.476426 0.001457 0.879214
vn -0.631253 -0.021302 0.775284
vn -0.999994 0.000995 -0.003269
vn -0.988201 -0.015574 -0.152370
vn -0.998841 -0.026685 0.040069
vn 0.193747 -0.004657 -0.981041
vn 0.074300 0.007933 -0.997204
vn 0.254178 0.051312 -0.965795
vn -0.645977 0.000946 0.763356
vn 0.331610 -0.000751 -0.943416
vn 0.998883 -0.000275 0.047251
vn -0.600256 0.464645 -0.650998
vn -0.840716 0.267716 0.470664
vn -0.727754 0.685838 0.000010
vn -0.822221 0.112839 0.557870
vn 0.600122 0.325964 -0.730480
vn 0.993558 0.010300 -0.112854
vn 0.987716 -0.000683 -0.156255
vn 0.962200 0.027022 -0.270999
vn -0.648391 0.018845 0.761074
vn -0.728224 0.003995 0.685327
vn -0.679312 0.002737 0.733845
vn -0.883645 0.465599 -0.048875
vn 0.717992 -0.010036 -0.695980
vn 0.680195 0.000268 -0.733031
vn 0.767131 0.000226 -0.641490
vn 0.848237 -0.000260 -0.529617
vn 0.830530 0.014096 -0.556796
vn 0.911374 -0.000200 -0.411580
vn -0.752289 -0.182013 -0.633192
vn -0.978504 -0.164221 -0.124745
vn -0.737867 -0.068300 -0.671482
vn -0.823633 0.058174 -0.564131
vn -0.740996 0.067464 -0.668112
vn -0.865823 -0.004098 0.500334
vn -0.909630 0.043513 0.413134
vn -0.935457 -0.002761 0.353430
vn -0.605215 -0.008171 0.796020
vn -0.940835 0.190720 -0.280101
vn -0.912293 0.033347 -0.408178
vn -0.940209 -0.002322 -0.340589
vn -0.995989 0.050102 0.074134
vn -0.296745 0.848540 -0.438090
vn -0.273232 0.845830 -0.458166
vn -0.930118 -0.186674 -0.316279
vn -0.813051 -0.314976 0.489632
vn 0.010528 0.000343 -0.999945
vn 0.011064 -0.024674 -0.999634
vn 0.011652 -0.007890 -0.999901
vn -0.992816 -0.008470 -0.119352
vn -0.770785 -0.551089 0.319674
vn -0.769389 -0.580858 0.265790
vn -0.911898 -0.410226 -0.012504
vn -0.709512 0.011618 0.704598
vn -0.990799 -0.053265 -0.124421
vn -0.875384 0.012748 -0.483261
vn -0.879125 -0.023774 -0.475997
vn -0.244132 0.038870 0.968963
vn -0.977614 -0.139224 0.157759
vn -0.333877 -0.061995 0.940576
vn 0.457606 -0.003117 -0.889150
vn 0.540309 -0.021716 -0.841187
vn -0.213133 -0.581386 -0.785216
vn 0.249147 -0.040121 -0.967634
vn -0.236727 -0.478274 -0.845704
vn -0.616803 0.641834 -0.455634
vn -0.995709 -0.070389 0.060070
vn -0.987936 -0.149186 -0.041550
vn 0.823957 -0.185487 -0.535435
vn 0.857883 -0.184629 -0.479530
vn 0.827617 -0.066651 -0.557323
vn 0.274202 0.388385 -0.879756
vn 0.988753 0.000552 -0.149555
vn 0.923284 0.065895 -0.378423
vn -0.825982 0.356048 -0.437018
vn -0.824131 0.205456 -0.527822
vn -0.654692 0.687254 -0.314737
vn -0.758643 0.025187 0.651020
vn 0.666079 0.000032 0.745881
vn 0.729638 -0.002079 0.683831
vn 0.743111 0.000093 0.669168
vn -0.513800 -0.006835 -0.857883
vn -0.360165 0.005748 -0.932871
vn -0.292586 -0.057090 -0.954534
vn 0.028753 0.017423 -0.999435
vn 0.056242 0.090903 -0.994270
vn 0.232651 0.144193 -0.961812
vn 0.282181 0.001959 0.959359
vn 0.234722 -0.003527 0.972056
vn 0.326567 -0.000125 0.945174
vn 0.630800 -0.002630 0.775941
vn -0.471409 0.371623 -0.799794
vn -0.413026 0.329724 -0.848936
vn -0.981004 0.028163 -0.191935
vn 0.427322 -0.003439 0.904093
vn 0.465451 0.000171 0.885074
vn 0.399969 0.000258 0.916529
vn -0.350468 -0.105831 0.930576
vn -0.534803 -0.758699 0.371969
vn -0.178171 0.000668 -0.983999
vn -0.118238 -0.005238 -0.992972
vn -0.693181 0.027818 0.720226
vn -0.825400 0.080680 0.558753
vn -0.764153 -0.018665 0.644765
vn -0.110616 0.734884 -0.669111
vn -0.510193 0.009053 -0.860012
vn -0.350373 0.001629 0.936609
vn -0.258805 0.002924 0.965925
vn -0.514323 0.020510 0.857351
vn 0.632002 -0.007951 -0.774926
vn 0.467153 -0.319900 -0.824277
vn 0.694696 -0.208550 -0.688408
vn 0.639615 -0.212406 -0.738767
vn -0.596488 -0.002504 -0.802618
vn -0.486738 0.000545 -0.873548
vn -0.985463 -0.120961 0.119295
vn -0.956246 -0.050250 0.288218
vn -0.937826 0.078787 0.338045
vn -0.989433 0.068197 0.127951
vn -0.884643 0.082304 0.458948
vn -0.608758 0.072146 0.790069
vn -0.660848 -0.030579 0.749897
vn -0.522177 -0.037195 0.852026
vn -0.956507 -0.074801 -0.281957
vn -0.997833 0.056286 -0.034064
vn -0.756053 -0.616865 0.218774
vn -0.556943 -0.675764 0.482864
vn -0.822894 -0.456261 0.338632
vn -0.183231 -0.033660 0.982494
vn -0.436064 0.053841 0.898304
vn 0.107281 -0.004975 0.994216
vn 0.321632 -0.003927 0.946857
vn 0.184180 0.049693 0.981636
vn -0.768092 0.397707 -0.501861
vn -0.926620 0.359974 0.108600
vn -0.917014 0.380624 0.119208
vn -0.554710 0.822009 0.128832
vn 0.523602 -0.002922 0.851958
vn -0.963405 0.044192 -0.264381
vn -0.745161 0.003520 0.666875
vn -0.867249 0.057276 0.494569
vn -0.961228 0.234952 -0.144358
vn 0.458784 0.027241 0.888130
vn -0.934998 -0.327209 -0.136793
vn -0.445224 -0.100341 -0.889780
vn -0.728312 -0.164140 -0.665297
vn -0.451576 0.027536 -0.891808
vn -0.223852 0.004993 -0.974610
vn -0.211786 0.477712 -0.852607
vn -0.292643 0.067214 0.953857
vn -0.319792 -0.043198 0.946503
vn -0.096408 -0.004305 0.995333
vn -0.437578 0.818996 -0.371176
vn -0.920704 0.005160 0.390229
vn -0.964438 0.022526 0.263349
vn -0.933389 -0.008921 0.358755
vn 0.846215 0.000249 -0.532842
vn 0.910628 0.000202 -0.413227
vn 0.886271 -0.001196 -0.463165
vn -0.100274 -0.130609 -0.986350
vn 0.309069 0.064631 -0.948841
vn 0.235678 0.059983 -0.969978
vn 0.195398 0.020890 -0.980502
vn -0.134419 0.006677 0.990902
vn -0.357360 0.008751 0.933926
vn -0.894639 -0.296179 0.334514
vn -0.623425 -0.606602 0.493331
vn 0.999978 0.000488 -0.006599
vn -0.758541 -0.016751 0.651410
vn 0.573731 0.000085 0.819044
vn -0.822547 -0.104182 -0.559074
vn -0.983077 0.085955 -0.161774
vn -0.998351 0.056582 0.009693
vn 0.124781 0.021508 -0.991951
vn 0.223122 0.013831 -0.974692
vn -0.359196 -0.009796 -0.933211
vn -0.274297 -0.060407 -0.959746
vn -0.776448 -0.437741 -0.453334
vn -0.728260 -0.641546 0.240949
vn 0.114997 -0.034387 0.992770
vn 0.116712 -0.120003 0.985889
vn -0.665247 0.377899 -0.643924
vn -0.732507 0.506647 -0.454689
vn -0.826896 0.002975 0.562348
vn -0.821951 -0.013872 0.569389
vn 0.871461 0.001294 0.490463
vn 0.892821 -0.003405 0.450400
vn 0.919708 0.000151 0.392603
vn 0.096194 -0.023795 0.995078
vn 0.107975 -0.002956 0.994149
vn -0.868685 -0.023685 -0.494799
vn -0.776422 -0.628466 0.046910
vn -0.344338 0.396524 -0.851000
vn -0.328069 0.154084 -0.932003
vn -0.995133 0.045389 -0.087466
vn -0.984685 -0.001916 -0.174334
vn -0.206015 0.887303 -0.412615
vn -0.648092 0.637792 -0.416171
vn -0.018119 0.039244 0.999065
vn 0.501940 0.485544 -0.715754
vn 0.367312 0.038019 -0.929320
vn 0.626587 0.354815 -0.693898
vn 0.564360 0.020249 -0.825281
vn 0.660333 0.029473 -0.750394
vn 0.642631 -0.000846 -0.766176
vn -0.982369 -0.098536 0.158879
vn -0.964063 -0.116642 0.238698
vn -0.823652 0.122233 -0.553765
vn -0.999879 0.011495 0.010521
vn -0.830170 -0.025449 -0.556929
vn -0.760520 -0.419712 0.495431
vn -0.922142 -0.015226 0.386552
vn -0.950898 0.001690 0.309501
vn -0.973638 -0.031922 0.225855
vn 0.566934 0.000240 -0.823763
vn -0.136510 0.038043 0.989908
vn -0.653595 0.087339 0.751788
vn -0.424318 -0.120973 0.897396
vn -0.164724 0.667874 -0.725817
vn -0.757608 0.006905 -0.652674
vn -0.664588 0.007851 -0.747169
vn -0.708515 -0.016877 -0.705494
vn -0.207891 0.010838 -0.978092
vn -0.091747 0.061978 -0.993852
vn 0.321634 0.294235 -0.899987
vn -0.578384 0.035512 0.814992
vn -0.576233 -0.002900 0.817280
vn 0.470366 -0.165740 -0.866768
vn 0.417787 0.123248 -0.900147
vn -0.879859 -0.063751 0.470940
vn -0.990028 -0.031408 0.137322
vn -0.843298 0.079294 -0.531565
vn -0.362525 -0.904152 0.226019
vn -0.835914 -0.157455 0.525790
vn -0.591619 -0.400250 0.699848
vn -0.130262 0.201139 -0.970863
vn 0.999744 -0.000653 -0.022622
vn 0.296117 0.062277 -0.953119
vn 0.512176 0.000483 -0.858880
vn 0.660749 -0.003178 -0.750600
vn 0.572485 -0.028801 -0.819409
vn -0.837405 -0.082146 0.540375
vn -0.678146 0.029062 0.734352
vn -0.968702 -0.195478 -0.152987
vn -0.951525 -0.114350 0.285524
vn -0.963442 -0.126529 0.236159
vn 0.492132 -0.000806 -0.870520
vn -0.324557 0.022230 -0.945605
vn -0.216461 -0.064310 -0.974171
vn 0.316147 0.005978 -0.948691
vn -0.714657 0.648048 -0.263248
vn -0.966449 -0.029775 -0.255125
vn 0.758695 -0.000585 -0.651446
vn 0.738493 0.017429 -0.674036
vn 0.870792 0.067361 -0.487016
vn 0.835318 0.228216 -0.500162
vn 0.672827 0.253485 -0.695018
vn 0.200280 -0.108626 -0.973698
vn -0.411772 -0.117115 -0.903730
vn -0.769779 -0.353359 0.531581
vn -0.963784 -0.133093 -0.231098
vn -0.942548 -0.193756 0.272144
vn -0.750290 -0.381873 -0.539665
vn -0.469900 0.034059 -0.882063
vn -0.653381 0.043642 -0.755770
vn -0.107723 0.010302 -0.994128
vn 0.195522 -0.024398 -0.980396
vn -0.484010 -0.034881 -0.874367
vn -0.250903 -0.048506 -0.966796
vn -0.771837 0.000064 0.635821
vn -0.811923 -0.047684 0.581814
vn -0.936024 0.021191 -0.351299
vn -0.914090 -0.369558 -0.166931
vn -0.942448 -0.148854 -0.299391
vn -0.962066 0.203708 0.181474
vn -0.295651 0.025371 -0.954959
vn -0.573972 0.192401 -0.795951
vn -0.510194 0.075123 -0.856772
vn -0.871535 0.267081 -0.411211
vn 0.046940 -0.340048 -0.939236
vn -0.999982 -0.002008 -0.005595
vn -0.593999 -0.058916 0.802305
vn -0.916717 -0.132772 0.376830
vn -0.501839 -0.022794 0.864661
vn 0.146787 -0.061793 0.987236
vn 0.198285 -0.044658 0.979127
vn 0.249972 -0.041538 0.967362
vn -0.028061 0.002822 0.999602
vn 0.157496 -0.385812 -0.909035
vn -0.806986 -0.035050 0.589530
vn 0.261876 -0.042467 0.964167
vn -0.954546 -0.280360 0.101196
vn -0.231414 -0.275338 0.933079
vn -0.966704 -0.008797 -0.255744
vn -0.948933 0.008786 -0.315356
vn -0.886820 -0.168711 -0.430218
vn -0.970517 0.005057 -0.240981
vn -0.963671 -0.165081 -0.209970
vn -0.948535 -0.207762 -0.238989
vn -0.990091 0.001062 0.140421
vn 0.738452 -0.045478 -0.672770
vn 0.109559 -0.003687 -0.993973
vn -0.074681 -0.472892 -0.877950
vn 0.143766 0.042157 0.988713
vn 0.974328 0.008196 0.224983
vn 0.961316 -0.000654 0.275449
vn 0.993077 -0.000930 0.117463
vn 0.681433 0.033636 -0.731107
vn 0.627014 0.213147 -0.749281
vn 0.806500 0.189192 -0.560146
vn -0.898210 0.391992 -0.198897
vn 0.912239 0.016239 0.409335
vn 0.913203 -0.000489 0.407505
vn 0.782071 -0.008000 0.623138
vn 0.708816 -0.024574 0.704965
vn -0.614490 -0.013385 -0.788811
vn -0.995411 -0.075645 0.058605
vn -0.925082 -0.115233 -0.361862
vn -0.838274 -0.135030 -0.528265
vn -0.877632 0.001897 0.479331
vn -0.025527 0.010456 -0.999619
vn 0.383371 0.271614 -0.882753
vn -0.604547 -0.167670 0.778723
vn -0.913031 0.130778 0.386357
vn 0.752244 -0.035927 -0.657905
vn -0.762667 0.021321 0.646440
vn 0.811509 -0.001445 -0.584338
vn -0.907386 -0.203732 -0.367619
vn -0.704294 -0.070262 -0.706422
vn -0.803137 -0.122218 -0.583124
vn -0.895720 -0.119126 -0.428364
vn -0.686283 0.033001 0.726586
vn -0.737798 -0.061477 0.672216
vn -0.886354 0.031572 0.461930
vn -0.776735 0.001411 0.629826
vn -0.833519 -0.027034 0.551829
vn -0.736018 -0.357685 0.574751
vn -0.976595 -0.134397 -0.167930
vn -0.960764 -0.160507 -0.226209
vn -0.794314 0.173516 0.582201
vn -0.793220 -0.095178 0.601452
vn -0.554778 0.002619 0.831994
vn -0.536543 -0.005572 0.843854
vn 0.965747 -0.073725 -0.248792
vn 0.636655 -0.112100 -0.762958
vn 0.940617 0.013847 -0.339188
vn -0.660867 0.024372 -0.750107
vn -0.848299 -0.002180 -0.529513
vn -0.947417 -0.319550 -0.016996
vn -0.357746 -0.010305 0.933762
vn -0.325548 0.061020 0.943555
vn 0.903309 0.007820 -0.428920
vn -0.987145 -0.127682 0.096139
vn -0.054760 0.007763 -0.998469
vn 0.044889 -0.000738 -0.998992
vn -0.093297 -0.006660 -0.995616
vn -0.574240 -0.027555 0.818224
vn 0.998931 -0.033486 -0.031875
vn 0.842154 -0.027379 0.538541
vn 0.842892 0.088280 0.530792
vn 0.821081 -0.003551 0.570800
vn 0.813322 0.000152 0.581815
vn -0.987528 0.025899 0.155297
vn -0.920628 -0.011995 0.390256
vn -0.936462 0.050555 0.347107
vn -0.463858 0.113176 -0.878651
vn -0.653455 0.020572 -0.756686
vn -0.820042 0.064215 -0.568690
vn -0.803975 0.051224 -0.592453
vn -0.793250 -0.070163 -0.604841
vn 0.474066 0.039464 -0.879605
vn -0.985669 -0.144867 0.086434
vn -0.902722 -0.218176 0.370799
vn -0.945902 -0.014146 -0.324143
vn -0.921971 0.100650 -0.373952
vn -0.957510 0.048875 -0.284228
vn -0.988407 0.151779 0.003753
vn -0.963120 -0.163836 -0.213440
vn -0.791935 0.013320 -0.610460
vn -0.834460 -0.056864 -0.548127
vn -0.749888 0.011950 -0.661457
vn -0.991206 0.004367 0.132254
vn -0.993122 -0.007665 0.116829
vn -0.970140 -0.010917 0.242301
vn -0.986646 0.111148 0.119065
vn -0.732379 0.000898 -0.680896
vn -0.747706 -0.032405 -0.663239
vn -0.806108 0.017524 0.591508
vn -0.720476 -0.313748 0.618447
vn 0.191818 0.003498 0.981424
vn -0.548851 0.060281 -0.833744
vn 0.958853 -0.000523 -0.283902
vn 0.597710 0.220643 -0.770753
vn -0.984448 0.117722 -0.130398
vn -0.985790 0.092856 -0.139983
vn -0.302071 0.333963 0.892873
vn -0.703590 0.685894 -0.185771
vn -0.600038 0.602087 0.526731
vn -0.019097 0.075549 -0.996959
vn -0.743257 -0.014895 0.668840
vn -0.989403 -0.125193 0.073543
vn -0.880272 0.020746 -0.474015
vn -0.796086 0.000815 -0.605183
vn -0.571450 0.011720 -0.820553
vn -0.946381 0.138520 -0.291847
vn 0.861064 -0.005342 0.508469
vn 0.661822 0.344424 -0.665856
vn -0.983320 -0.086768 0.159854
vn -0.561475 -0.042360 0.826409
vn -0.805795 -0.006778 -0.592156
vn 0.998786 0.012429 0.047674
vn 0.917040 -0.030800 -0.397605
vn -0.966228 0.054273 0.251907
vn 0.034995 0.010570 -0.999332
vn -0.018258 -0.064653 -0.997741
vn -0.914836 -0.391416 -0.099340
vn -0.375687 -0.017826 0.926575
vn -0.596685 -0.111287 0.794721
vn 0.793293 0.027138 0.608235
vn 0.701980 -0.012633 0.712085
vn 0.606449 -0.041688 0.794028
vn 0.646548 -0.021993 0.762557
vn 0.845033 0.160903 -0.509930
vn 0.691456 0.202437 -0.693476
vn 0.999483 -0.013245 0.029311
vn 0.998430 0.001508 0.055989
vn -0.449649 0.047764 0.891927
vn -0.454285 0.066095 0.888401
vn 0.629331 0.066517 0.774286
vn 0.618482 -0.002737 0.785794
vn 0.736483 0.019908 0.676163
vn 0.494888 -0.002544 0.868953
vn -0.113645 0.023881 -0.993234
vn -0.345788 0.030364 -0.937821
vn 0.577535 -0.178357 -0.796644
vn -0.990142 0.007603 -0.139860
vn 0.605727 0.064459 0.793057
vn -0.800271 -0.086962 -0.593299
vn -0.906366 -0.421251 0.032369
vn 0.845742 -0.142891 -0.514104
vn 0.878313 0.010313 0.477974
vn 0.757509 0.012954 0.652696
vn 0.833898 -0.008574 0.551853
vn -0.830910 0.000811 -0.556406
vn -0.768916 -0.013047 -0.639217
vn -0.610955 0.192133 0.767997
vn -0.556344 0.463750 -0.689505
vn -0.119467 0.115750 -0.986068
vn -0.684459 -0.042005 -0.727840
vn -0.995841 0.040463 -0.081630
vn -0.984880 -0.002612 0.173216
vn -0.683511 -0.060060 0.727465
vn -0.635644 0.073952 0.768432
vn -0.739828 -0.000796 -0.672795
vn -0.656736 0.058829 -0.751822
vn -0.553478 0.069421 -0.829966
vn -0.976406 -0.012721 -0.215568
vn -0.990755 -0.058018 -0.122628
vn -0.701448 -0.069206 0.709352
vn -0.684596 0.265890 0.678698
vn -0.476179 0.062778 0.877105
vn -0.376929 0.125205 0.917741
vn -0.974802 0.174346 -0.139156
vn -0.020085 -0.025555 -0.999472
vn -0.976288 -0.133989 0.170025
vn 0.488502 -0.282863 -0.825442
vn -0.998758 -0.049429 -0.006255
vn -0.457540 0.055470 -0.887457
vn -0.022171 -0.021844 -0.999516
vn 0.067152 -0.102550 0.992459
vn 0.179534 0.119781 -0.976432
vn -0.687858 -0.035333 -0.724985
vn 0.210933 -0.045242 -0.976453
vn -0.979011 -0.195494 0.057615
vn -0.969219 -0.181475 -0.166374
vn 0.935035 -0.013577 0.354296
vn -0.373873 -0.083297 0.923732
vn -0.156542 -0.020757 -0.987453
vn -0.698482 -0.010330 -0.715553
vn -0.674078 0.032264 -0.737955
vn -0.663437 -0.062920 -0.745582
vn 0.760517 0.032558 0.648502
vn -0.981960 0.042958 -0.184148
vn -0.012322 -0.085138 -0.996293
s 1
g pillier_l_2_low
f 153/1/1 127/2/2 423/3/3
f 401/484/4 1/486/5 556/489/6
f 225/494/7 83/430/8 475/491/9
f 395/528/10 118/160/11 27/161/12
f 122/535/13 78/530/14 298/532/15
f 71/273/16 7/274/17 8/559/18
f 71/273/16 8/559/18 350/277/19
f 370/496/20 83/430/8 225/494/7
f 12/27/21 381/21/22 171/34/23
f 141/425/24 2/485/25 475/491/9
f 87/184/26 25/182/27 432/193/28
f 279/228/29 245/236/30 391/232/31
f 317/110/32 492/116/33 338/120/34
f 301/199/35 525/209/36 175/204/37
f 60/123/38 196/124/39 267/108/40
f 58/107/41 198/93/42 514/106/43
f 21/548/44 228/542/45 359/538/46
f 533/32/47 547/79/48 160/47/49
f 28/313/50 15/292/51 449/306/52
f 404/180/53 57/531/54 73/529/55
f 17/52/56 47/506/57 387/42/58
f 245/236/30 91/383/59 391/232/31
f 13/131/60 444/467/61 139/468/62
f 396/522/63 299/364/64 247/371/65
f 242/328/66 28/313/50 39/321/67
f 20/527/68 92/260/69 161/482/70
f 20/527/68 380/252/71 92/260/69
f 397/97/72 52/89/73 466/80/74
f 515/10/75 430/4/76 6/11/77
f 3/487/78 260/526/79 22/378/80
f 466/80/74 52/89/73 190/69/81
f 3/487/78 22/378/80 24/488/82
f 71/273/16 350/277/19 165/280/83
f 139/468/62 301/199/35 271/132/84
f 461/142/85 477/149/86 144/137/87
f 22/378/80 417/379/88 247/371/65
f 221/295/89 536/310/90 262/303/91
f 152/163/92 206/167/93 105/168/94
f 461/142/85 72/154/95 477/149/86
f 51/363/96 224/370/97 67/361/98
f 102/340/99 448/325/100 29/324/101
f 339/37/102 197/35/103 124/45/104
f 492/116/33 163/101/105 405/109/106
f 497/392/107 121/393/108 209/394/109
f 188/165/110 152/163/92 105/168/94
f 386/272/111 174/265/112 403/411/113
f 117/402/114 261/397/115 552/404/116
f 197/35/103 311/19/117 438/28/118
f 94/493/119 531/420/120 77/422/121
f 175/204/37 525/209/36 413/213/122
f 189/202/123 32/215/124 210/208/125
f 21/548/44 397/97/72 228/542/45
f 544/117/126 461/142/85 144/137/87
f 185/250/127 34/233/128 191/245/129
f 259/259/130 377/231/131 440/240/132
f 135/490/133 1/486/5 37/377/134
f 460/472/135 19/473/136 456/474/137
f 5/226/138 552/404/116 261/397/115
f 149/206/139 210/208/125 125/216/140
f 143/336/141 308/314/142 550/345/143
f 184/320/144 128/298/145 154/312/146
f 382/179/147 500/207/148 494/212/149
f 188/165/110 105/168/94 428/172/150
f 74/307/151 319/293/152 207/299/153
f 136/390/154 140/508/155 256/511/156
f 541/517/157 76/518/158 323/512/159
f 233/549/160 81/550/161 63/339/162
f 74/307/151 410/309/163 319/293/152
f 44/134/164 405/109/106 470/130/165
f 91/383/59 18/217/166 444/467/61
f 373/332/167 45/337/168 527/554/169
f 440/240/132 506/247/170 259/259/130
f 443/223/171 210/208/125 32/215/124
f 278/501/172 94/493/119 435/427/173
f 201/401/174 324/395/175 501/398/176
f 470/130/165 269/469/177 44/134/164
f 136/390/154 107/391/178 140/508/155
f 383/157/179 14/433/180 93/436/181
f 14/433/180 383/157/179 404/180/53
f 439/373/182 224/370/97 51/363/96
f 226/359/183 236/344/184 132/353/185
f 397/97/72 21/548/44 52/89/73
f 427/261/186 380/252/71 346/267/187
f 267/108/40 434/94/188 291/115/189
f 100/68/190 358/60/191 178/78/192
f 501/398/176 485/457/193 173/403/194
f 395/528/10 27/161/12 222/166/195
f 358/60/191 137/44/196 446/83/197
f 343/14/198 82/7/199 484/41/200
f 57/531/54 472/533/201 426/536/202
f 200/551/203 61/552/204 85/545/205
f 488/121/206 58/107/41 514/106/43
f 267/108/40 291/115/189 60/123/38
f 527/554/169 233/549/160 63/339/162
f 114/141/207 291/115/189 104/122/208
f 104/122/208 414/181/209 114/141/207
f 45/337/168 373/332/167 352/322/210
f 374/143/211 133/127/212 62/148/213
f 118/160/11 534/151/214 27/161/12
f 61/552/204 337/455/215 63/339/162
f 63/339/162 85/545/205 61/552/204
f 436/417/216 64/418/217 539/419/218
f 218/119/219 115/555/220 9/470/221
f 292/541/222 334/544/223 65/546/224
f 104/122/208 66/192/225 414/181/209
f 79/186/226 283/189/227 447/190/228
f 454/349/229 277/334/230 406/343/231
f 4/475/232 19/473/136 460/472/135
f 476/516/233 158/519/234 187/521/235
f 205/437/236 90/435/237 14/433/180
f 205/437/236 14/433/180 404/180/53
f 311/19/117 504/22/238 438/28/118
f 484/41/200 82/7/199 487/12/239
f 71/273/16 165/280/83 390/284/240
f 105/168/94 206/167/93 478/175/241
f 25/182/27 79/186/226 447/190/228
f 73/529/55 205/437/236 404/180/53
f 298/532/15 78/530/14 73/529/55
f 45/337/168 352/322/210 378/330/242
f 181/29/243 339/37/102 124/45/104
f 521/46/244 137/44/196 169/63/245
f 476/516/233 187/521/235 235/266/246
f 247/371/65 417/379/88 344/381/247
f 47/506/57 232/81/248 387/42/58
f 424/90/249 110/82/250 10/70/251
f 551/443/252 69/438/253 78/530/14
f 78/530/14 205/437/236 73/529/55
f 72/154/95 496/147/254 251/176/255
f 206/167/93 457/171/256 296/177/257
f 80/281/258 305/278/259 415/276/260
f 81/550/161 510/540/261 63/339/162
f 298/532/15 376/539/262 122/535/13
f 153/1/1 423/3/3 263/5/263
f 153/1/1 263/5/263 357/9/264
f 325/431/265 83/430/8 97/432/266
f 64/418/217 436/417/216 531/420/120
f 84/407/267 386/272/111 11/409/268
f 386/272/111 433/410/269 202/225/270
f 510/540/261 85/545/205 63/339/162
f 85/545/205 418/537/271 200/551/203
f 86/382/272 275/380/273 26/376/274
f 170/366/275 398/355/276 211/354/277
f 313/211/278 40/201/279 149/206/139
f 38/183/280 101/187/281 412/188/282
f 88/57/283 160/47/49 547/79/48
f 437/26/284 138/24/285 264/18/286
f 37/377/134 1/486/5 89/375/287
f 397/97/72 90/435/237 69/438/253
f 422/77/288 385/59/289 250/76/290
f 44/134/164 315/386/291 91/383/59
f 349/385/292 281/388/293 192/387/294
f 92/260/69 462/270/295 161/482/70
f 42/524/296 235/266/246 489/523/297
f 14/433/180 499/434/298 375/153/299
f 499/434/298 422/77/288 375/153/299
f 531/420/120 94/493/119 2/485/25
f 287/374/300 226/359/183 132/353/185
f 353/365/301 86/382/272 26/376/274
f 272/138/302 213/118/303 549/129/304
f 297/66/305 112/103/306 239/139/307
f 325/431/265 126/471/308 9/470/221
f 126/471/308 269/469/177 9/470/221
f 536/310/90 221/295/89 336/302/309
f 456/474/137 99/367/310 76/518/158
f 116/362/311 146/350/312 303/358/313
f 156/126/314 407/111/315 133/127/212
f 112/103/306 213/118/303 399/128/316
f 469/194/317 412/188/282 101/187/281
f 87/184/26 282/185/318 478/175/241
f 170/366/275 211/354/277 255/369/319
f 140/508/155 186/507/320 421/480/321
f 421/480/321 120/509/322 140/508/155
f 66/192/225 488/121/206 271/132/84
f 338/120/34 253/135/323 13/131/60
f 428/172/150 105/168/94 441/178/324
f 105/168/94 478/175/241 441/178/324
f 448/325/100 474/346/325 195/341/326
f 543/326/327 505/333/328 234/342/329
f 97/432/266 83/430/8 370/496/20
f 126/471/308 360/465/330 49/463/331
f 388/88/332 100/68/190 178/78/192
f 388/88/332 88/57/283 547/79/48
f 464/220/333 46/230/334 377/231/131
f 202/225/270 433/410/269 5/226/138
f 110/82/250 424/90/249 340/426/335
f 110/82/250 182/98/336 230/91/337
f 186/507/320 309/504/338 129/502/339
f 294/461/340 244/464/341 186/507/320
f 409/96/342 96/112/343 112/103/306
f 409/96/342 388/88/332 178/78/192
f 400/36/344 113/30/345 75/23/346
f 357/9/264 113/30/345 153/1/1
f 304/133/347 291/115/189 114/141/207
f 72/154/95 304/133/347 496/147/254
f 33/556/348 64/418/217 115/555/220
f 402/429/349 518/423/350 316/428/351
f 439/373/182 51/363/96 116/362/311
f 257/476/352 19/473/136 37/377/134
f 258/405/353 84/407/267 11/409/268
f 177/158/354 62/148/213 50/150/355
f 383/157/179 93/436/181 468/162/356
f 59/553/357 119/439/358 43/441/359
f 333/547/360 21/548/44 359/538/46
f 120/509/322 421/480/321 68/479/361
f 323/512/159 460/472/135 541/517/157
f 38/183/280 412/188/282 382/179/147
f 188/165/110 428/172/150 328/173/362
f 59/553/357 43/441/359 233/549/160
f 119/439/358 130/440/363 43/441/359
f 164/224/364 443/223/171 535/239/365
f 172/221/366 502/227/367 279/228/29
f 302/86/368 193/105/369 30/99/370
f 145/72/371 30/99/370 198/93/42
f 313/211/278 149/206/139 125/216/140
f 125/216/140 202/225/270 5/226/138
f 360/465/330 126/471/308 97/432/266
f 325/431/265 97/432/266 126/471/308
f 515/10/75 6/11/77 368/17/372
f 308/314/142 128/298/145 363/444/373
f 449/306/52 15/292/51 128/298/145
f 129/502/339 309/504/338 307/503/374
f 284/478/375 68/479/361 421/480/321
f 130/440/363 180/442/376 43/441/359
f 69/438/253 551/443/252 359/538/46
f 389/287/377 452/560/378 204/297/379
f 415/276/260 305/278/259 8/275/18
f 450/352/380 143/336/141 550/345/143
f 486/360/381 450/352/380 219/356/382
f 62/148/213 133/127/212 50/150/355
f 534/151/214 144/137/87 367/156/383
f 389/558/377 327/294/384 194/300/385
f 310/315/386 327/294/384 41/323/387
f 19/473/136 135/490/133 37/377/134
f 401/484/4 556/489/6 19/473/136
f 107/391/178 136/390/154 281/388/293
f 192/387/294 281/388/293 214/389/388
f 446/83/197 137/44/196 532/74/389
f 70/54/390 181/29/243 348/55/391
f 437/26/284 23/38/392 138/24/285
f 18/217/166 525/209/36 444/467/61
f 413/213/122 525/209/36 18/217/166
f 256/511/156 140/508/155 392/514/393
f 341/510/394 140/508/155 120/509/322
f 83/430/8 141/425/24 475/491/9
f 518/423/350 141/425/24 316/428/351
f 250/76/290 385/59/289 530/58/395
f 88/57/283 151/31/396 160/47/49
f 303/358/313 146/350/312 321/335/397
f 321/335/397 242/328/66 39/321/67
f 522/144/398 133/127/212 144/137/87
f 133/127/212 544/117/126 144/137/87
f 302/86/368 30/99/370 145/72/371
f 70/54/390 348/55/391 145/72/371
f 116/362/311 51/363/96 146/350/312
f 51/363/96 67/361/98 355/357/399
f 124/45/104 289/53/400 147/71/401
f 320/65/402 498/75/403 348/55/391
f 35/49/404 148/61/405 286/20/406
f 148/61/405 429/51/407 231/33/408
f 282/185/318 87/184/26 280/191/409
f 87/184/26 432/193/28 280/191/409
f 150/84/410 70/54/390 145/72/371
f 137/44/196 70/54/390 366/64/411
f 142/40/412 151/31/396 513/48/413
f 142/40/412 35/49/404 286/20/406
f 27/161/12 467/159/414 420/164/415
f 27/161/12 534/151/214 367/156/383
f 430/4/76 127/2/2 153/1/1
f 82/7/199 153/1/1 487/12/239
f 241/296/416 154/312/146 128/298/145
f 208/319/417 159/304/418 505/333/328
f 427/261/186 155/244/419 380/252/71
f 403/411/113 174/265/112 268/412/420
f 156/126/314 96/112/343 407/111/315
f 314/136/421 96/112/343 156/126/314
f 274/408/422 157/406/423 173/403/194
f 420/164/415 467/159/414 188/165/110
f 68/479/361 323/512/159 120/509/322
f 341/510/394 120/509/322 323/512/159
f 505/333/328 159/304/418 448/325/100
f 29/324/101 106/318/424 262/303/91
f 533/32/47 160/47/49 542/39/425
f 151/31/396 542/39/425 160/47/49
f 540/525/426 493/481/427 322/483/428
f 383/157/179 479/155/429 62/148/213
f 62/148/213 314/136/421 374/143/211
f 302/86/368 317/110/32 193/105/369
f 230/91/337 147/71/401 110/82/250
f 535/239/365 46/230/334 164/224/364
f 46/230/334 464/220/333 164/224/364
f 241/296/416 128/298/145 345/288/430
f 128/298/145 15/292/51 345/288/430
f 229/290/431 511/282/432 134/285/433
f 319/293/152 134/285/433 491/289/434
f 54/92/435 532/74/389 167/100/436
f 358/60/191 54/92/435 507/87/437
f 503/416/438 53/271/439 346/267/187
f 265/413/440 529/251/441 408/256/442
f 169/63/245 137/44/196 358/60/191
f 533/32/47 343/14/198 484/41/200
f 275/380/273 554/372/443 255/369/319
f 554/372/443 275/380/273 86/382/272
f 171/34/23 381/21/22 387/42/58
f 495/43/444 384/62/445 289/53/400
f 455/229/446 326/218/447 290/222/448
f 329/210/449 362/219/450 32/215/124
f 173/403/194 157/406/423 201/401/174
f 173/403/194 201/401/174 501/398/176
f 34/233/128 203/238/451 318/242/452
f 318/242/452 155/244/419 453/249/453
f 538/196/454 537/203/455 179/195/456
f 179/195/456 537/203/455 471/200/457
f 176/15/458 381/21/22 364/16/459
f 177/158/354 50/150/355 118/160/11
f 383/157/179 118/160/11 395/528/10
f 167/100/436 507/87/437 54/92/435
f 108/102/460 507/87/437 167/100/436
f 243/205/461 329/210/449 32/215/124
f 32/215/124 189/202/123 243/205/461
f 122/535/13 551/443/252 78/530/14
f 233/549/160 463/543/462 81/550/161
f 181/29/243 70/54/390 137/44/196
f 137/44/196 521/46/244 400/36/344
f 369/104/463 230/91/337 182/98/336
f 539/419/218 64/418/217 33/556/348
f 29/324/101 262/303/91 183/317/464
f 95/327/465 184/320/144 154/312/146
f 550/345/143 308/314/142 363/444/373
f 36/264/466 220/255/467 191/245/129
f 254/263/468 445/269/469 276/241/470
f 186/507/320 107/391/178 294/461/340
f 107/391/178 186/507/320 140/508/155
f 158/519/234 312/520/471 187/521/235
f 344/381/247 396/522/63 247/371/65
f 420/164/415 188/165/110 55/169/472
f 55/169/472 188/165/110 328/173/362
f 189/202/123 210/208/125 285/198/473
f 101/187/281 280/191/409 469/194/317
f 429/51/407 23/38/392 231/33/408
f 191/245/129 331/257/474 36/264/466
f 318/242/452 408/256/442 529/251/441
f 318/242/452 203/238/451 155/244/419
f 372/237/475 300/248/476 155/244/419
f 488/121/206 514/106/43 356/113/477
f 488/121/206 356/113/477 271/132/84
f 327/294/384 520/308/478 194/300/385
f 448/325/100 195/341/326 505/333/328
f 398/355/276 170/366/275 199/347/479
f 267/108/40 196/124/39 108/102/460
f 407/111/315 544/117/126 133/127/212
f 197/35/103 495/43/444 289/53/400
f 124/45/104 197/35/103 289/53/400
f 150/84/410 145/72/371 198/93/42
f 167/100/436 532/74/389 330/95/480
f 199/347/479 554/372/443 86/382/272
f 86/382/272 353/365/301 486/360/381
f 418/537/271 65/546/224 200/551/203
f 201/401/174 157/406/423 55/169/472
f 55/169/472 382/179/147 201/401/174
f 377/231/131 202/225/270 464/220/333
f 276/241/470 109/235/481 254/263/468
f 372/237/475 192/387/294 300/248/476
f 391/232/31 91/383/59 519/384/482
f 98/291/483 389/287/377 204/297/379
f 221/295/89 98/291/483 336/302/309
f 205/437/236 69/438/253 90/435/237
f 205/437/236 78/530/14 69/438/253
f 206/167/93 152/163/92 72/154/95
f 206/167/93 72/154/95 457/171/256
f 80/281/258 491/289/434 134/285/433
f 80/281/258 415/276/260 491/289/434
f 546/311/484 154/312/146 241/296/416
f 543/326/327 95/327/465 154/312/146
f 121/393/108 351/396/485 209/394/109
f 117/402/114 84/407/267 258/405/353
f 443/223/171 164/224/364 210/208/125
f 164/224/364 464/220/333 210/208/125
f 211/354/277 195/341/326 474/346/325
f 332/498/486 111/499/487 225/494/7
f 284/478/375 4/475/232 460/472/135
f 549/129/304 213/118/303 96/112/343
f 213/118/303 112/103/306 96/112/343
f 214/389/388 281/388/293 136/390/154
f 256/511/156 214/389/388 136/390/154
f 74/307/151 352/322/210 410/309/163
f 216/140/488 96/112/343 314/136/421
f 162/152/489 272/138/302 509/146/490
f 166/331/491 217/338/492 41/323/387
f 215/316/493 545/451/494 217/338/492
f 218/119/219 33/556/348 115/555/220
f 369/104/463 182/98/336 33/556/348
f 219/356/382 234/342/329 393/348/495
f 234/342/329 219/356/382 458/445/496
f 220/255/467 185/250/127 191/245/129
f 259/259/130 254/263/468 109/235/481
f 165/280/83 365/279/497 342/286/498
f 345/288/430 390/284/240 165/280/83
f 306/170/499 347/174/500 222/166/195
f 420/164/415 55/169/472 306/170/499
f 465/453/501 223/452/502 249/449/503
f 337/455/215 61/552/204 523/454/504
f 439/373/182 89/375/287 224/370/97
f 4/475/232 361/492/505 475/491/9
f 371/495/506 361/492/505 4/475/232
f 226/359/183 473/351/507 236/344/184
f 299/364/64 76/518/158 99/367/310
f 227/6/508 127/2/2 430/4/76
f 228/542/45 397/97/72 69/438/253
f 228/542/45 69/438/253 359/538/46
f 229/290/431 327/294/384 511/282/432
f 166/331/491 229/290/431 419/301/509
f 490/85/510 230/91/337 163/101/105
f 163/101/105 230/91/337 405/109/106
f 148/61/405 231/33/408 286/20/406
f 437/26/284 264/18/286 286/20/406
f 424/90/249 278/501/172 435/427/173
f 340/426/335 424/90/249 451/421/511
f 233/549/160 551/443/252 463/543/462
f 233/549/160 43/441/359 180/442/376
f 95/327/465 543/326/327 234/342/329
f 184/320/144 95/327/465 234/342/329
f 300/248/476 235/266/246 92/260/69
f 235/266/246 462/270/295 92/260/69
f 143/336/141 132/353/185 236/344/184
f 516/329/512 308/314/142 143/336/141
f 273/446/513 237/447/514 482/448/515
f 223/452/502 237/447/514 249/449/503
f 238/8/516 176/15/458 512/13/517
f 93/436/181 252/145/518 162/152/489
f 375/153/299 422/77/288 250/76/290
f 240/125/519 405/109/106 44/134/164
f 240/125/519 44/134/164 91/383/59
f 159/304/418 546/311/484 241/296/416
f 159/304/418 241/296/416 342/286/498
f 321/335/397 146/350/312 406/343/231
f 355/357/399 454/349/229 406/343/231
f 179/195/456 471/200/457 432/193/28
f 447/190/228 283/189/227 179/195/456
f 266/466/520 97/432/266 370/496/20
f 186/507/320 266/466/520 309/504/338
f 502/227/367 245/236/30 279/228/29
f 245/236/30 502/227/367 91/383/59
f 408/256/442 442/254/521 346/267/187
f 318/242/452 442/254/521 408/256/442
f 22/378/80 247/371/65 26/376/274
f 26/376/274 287/374/300 353/365/301
f 248/25/522 286/20/406 343/14/198
f 248/25/522 343/14/198 533/32/47
f 273/446/513 249/449/503 237/447/514
f 215/316/493 249/449/503 545/451/494
f 239/139/307 250/76/290 530/58/395
f 375/153/299 250/76/290 239/139/307
f 251/176/255 114/141/207 414/181/209
f 457/171/256 79/186/226 25/182/27
f 162/152/489 252/145/518 272/138/302
f 375/153/299 239/139/307 252/145/518
f 240/125/519 91/383/59 253/135/323
f 338/120/34 492/116/33 253/135/323
f 185/250/127 220/255/467 254/263/468
f 220/255/467 36/264/466 254/263/468
f 24/488/82 275/380/273 255/369/319
f 214/389/388 256/511/156 235/266/246
f 256/511/156 476/516/233 235/266/246
f 257/476/352 37/377/134 116/362/311
f 99/367/310 257/476/352 116/362/311
f 209/394/109 351/396/485 411/399/523
f 259/259/130 506/247/170 555/246/524
f 259/259/130 553/258/525 254/263/468
f 42/524/296 540/525/426 322/483/428
f 42/524/296 344/381/247 417/379/88
f 121/393/108 261/397/115 351/396/485
f 324/395/175 121/393/108 497/392/107
f 159/304/418 342/286/498 262/303/91
f 159/304/418 262/303/91 106/318/424
f 512/13/517 176/15/458 364/16/459
f 512/13/517 364/16/459 357/9/264
f 264/18/286 368/17/372 6/11/77
f 264/18/286 343/14/198 286/20/406
f 168/414/526 265/413/440 416/415/527
f 174/265/112 265/413/440 268/412/420
f 360/465/330 97/432/266 266/466/520
f 186/507/320 244/464/341 266/466/520
f 267/108/40 167/100/436 330/95/480
f 267/108/40 108/102/460 167/100/436
f 268/412/420 265/413/440 168/414/526
f 49/463/331 394/460/528 126/471/308
f 244/464/341 294/461/340 49/463/331
f 123/234/529 34/233/128 270/243/530
f 34/233/128 555/246/524 270/243/530
f 13/131/60 139/468/62 271/132/84
f 271/132/84 356/113/477 13/131/60
f 239/139/307 112/103/306 399/128/316
f 399/128/316 252/145/518 239/139/307
f 41/323/387 273/446/513 482/448/515
f 545/451/494 41/323/387 217/338/492
f 31/400/531 48/456/532 485/457/193
f 16/459/533 288/458/534 48/456/532
f 22/378/80 275/380/273 24/488/82
f 275/380/273 22/378/80 26/376/274
f 109/235/481 276/241/470 202/225/270
f 276/241/470 445/269/469 202/225/270
f 242/328/66 277/334/230 28/313/50
f 47/506/57 278/501/172 424/90/249
f 279/228/29 391/232/31 290/222/448
f 279/228/29 290/222/448 335/214/535
f 280/191/409 243/205/461 189/202/123
f 280/191/409 189/202/123 285/198/473
f 269/469/177 315/386/291 44/134/164
f 394/460/528 49/463/331 294/461/340
f 101/187/281 282/185/318 280/191/409
f 441/178/324 101/187/281 38/183/280
f 283/189/227 538/196/454 179/195/456
f 283/189/227 414/181/209 66/192/225
f 129/502/339 295/497/536 284/478/375
f 284/478/375 371/495/506 4/475/232
f 285/198/473 210/208/125 149/206/139
f 285/198/473 149/206/139 293/197/537
f 286/20/406 248/25/522 151/31/396
f 151/31/396 142/40/412 286/20/406
f 287/374/300 26/376/274 247/371/65
f 287/374/300 247/371/65 483/368/538
f 347/174/500 48/456/532 288/458/534
f 347/174/500 404/180/53 222/166/195
f 147/71/401 289/53/400 110/82/250
f 289/53/400 10/70/251 110/82/250
f 290/222/448 34/233/128 455/229/446
f 34/233/128 290/222/448 203/238/451
f 291/115/189 434/94/188 481/114/539
f 291/115/189 481/114/539 104/122/208
f 426/536/202 292/541/222 57/531/54
f 85/545/205 510/540/261 418/537/271
f 293/197/537 149/206/139 40/201/279
f 500/207/148 382/179/147 412/188/282
f 294/461/340 107/391/178 528/462/540
f 394/460/528 294/461/340 528/462/540
f 295/497/536 212/500/541 361/492/505
f 307/503/374 309/504/338 332/498/486
f 296/177/257 457/171/256 25/182/27
f 87/184/26 296/177/257 25/182/27
f 88/57/283 388/88/332 297/66/305
f 530/58/395 142/40/412 513/48/413
f 298/532/15 510/540/261 376/539/262
f 73/529/55 526/534/542 298/532/15
f 287/374/300 483/368/538 226/359/183
f 473/351/507 226/359/183 483/368/538
f 214/389/388 235/266/246 300/248/476
f 192/387/294 214/389/388 300/248/476
f 271/132/84 301/199/35 66/192/225
f 283/189/227 66/192/225 538/196/454
f 302/86/368 490/85/510 163/101/105
f 320/65/402 302/86/368 498/75/403
f 299/364/64 99/367/310 303/358/313
f 99/367/310 116/362/311 303/358/313
f 461/142/85 304/133/347 72/154/95
f 304/133/347 60/123/38 291/115/189
f 134/285/433 511/282/432 305/278/259
f 80/281/258 134/285/433 305/278/259
f 274/408/422 306/170/499 157/406/423
f 55/169/472 157/406/423 306/170/499
f 307/503/374 212/500/541 295/497/536
f 129/502/339 307/503/374 295/497/536
f 516/329/512 39/321/67 308/314/142
f 308/314/142 449/306/52 128/298/145
f 111/499/487 332/498/486 309/504/338
f 111/499/487 309/504/338 266/466/520
f 41/323/387 482/448/515 310/315/386
f 181/29/243 75/23/346 311/19/117
f 357/9/264 364/16/459 311/19/117
f 431/515/543 76/518/158 312/520/471
f 299/364/64 396/522/63 76/518/158
f 125/216/140 5/226/138 494/212/149
f 494/212/149 5/226/138 261/397/115
f 479/155/429 509/146/490 314/136/421
f 62/148/213 479/155/429 314/136/421
f 349/385/292 315/386/291 281/388/293
f 107/391/178 281/388/293 528/462/540
f 83/430/8 316/428/351 141/425/24
f 316/428/351 83/430/8 402/429/349
f 317/110/32 302/86/368 163/101/105
f 317/110/32 163/101/105 492/116/33
f 191/245/129 34/233/128 318/242/452
f 191/245/129 318/242/452 529/251/441
f 134/285/433 319/293/152 229/290/431
f 229/290/431 319/293/152 419/301/509
f 320/65/402 490/85/510 302/86/368
f 320/65/402 124/45/104 147/71/401
f 473/351/507 321/335/397 236/344/184
f 516/329/512 321/335/397 39/321/67
f 493/481/427 161/482/70 322/483/428
f 161/482/70 462/270/295 322/483/428
f 323/512/159 76/518/158 431/515/543
f 431/515/543 341/510/394 323/512/159
f 324/395/175 261/397/115 121/393/108
f 201/401/174 382/179/147 324/395/175
f 9/470/221 115/555/220 325/431/265
f 115/555/220 518/423/350 402/429/349
f 172/221/366 279/228/29 335/214/535
f 175/204/37 413/213/122 335/214/535
f 166/331/491 41/323/387 327/294/384
f 327/294/384 229/290/431 166/331/491
f 382/179/147 55/169/472 328/173/362
f 38/183/280 382/179/147 328/173/362
f 329/210/449 326/218/447 362/219/450
f 326/218/447 335/214/535 290/222/448
f 150/84/410 198/93/42 434/94/188
f 434/94/188 198/93/42 58/107/41
f 174/265/112 386/272/111 331/257/474
f 529/251/441 265/413/440 174/265/112
f 307/503/374 332/498/486 212/500/541
f 332/498/486 361/492/505 212/500/541
f 333/547/360 130/440/363 119/439/358
f 16/459/533 65/546/224 334/544/223
f 426/536/202 288/458/534 16/459/533
f 326/218/447 329/210/449 335/214/535
f 243/205/461 471/200/457 329/210/449
f 98/291/483 204/297/379 336/302/309
f 337/455/215 215/316/493 63/339/162
f 215/316/493 465/453/501 249/449/503
f 338/120/34 13/131/60 356/113/477
f 193/105/369 317/110/32 338/120/34
f 181/29/243 311/19/117 339/37/102
f 197/35/103 339/37/102 311/19/117
f 340/426/335 182/98/336 110/82/250
f 33/556/348 182/98/336 354/424/544
f 103/513/545 341/510/394 431/515/543
f 140/508/155 341/510/394 103/513/545
f 98/291/483 221/295/89 342/286/498
f 221/295/89 262/303/91 342/286/498
f 343/14/198 6/11/77 82/7/199
f 264/18/286 6/11/77 343/14/198
f 187/521/235 312/520/471 344/381/247
f 42/524/296 489/523/297 344/381/247
f 342/286/498 241/296/416 345/288/430
f 342/286/498 345/288/430 165/280/83
f 380/252/71 20/527/68 346/267/187
f 306/170/499 274/408/422 347/174/500
f 485/457/193 274/408/422 173/403/194
f 348/55/391 124/45/104 320/65/402
f 348/55/391 181/29/243 124/45/104
f 349/385/292 91/383/59 315/386/291
f 91/383/59 349/385/292 519/384/482
f 365/279/497 389/287/377 98/291/483
f 342/286/498 365/279/497 98/291/483
f 117/402/114 351/396/485 261/397/115
f 351/396/485 117/402/114 411/399/523
f 352/322/210 373/332/167 215/316/493
f 410/309/163 352/322/210 215/316/493
f 287/374/300 132/353/185 353/365/301
f 132/353/185 143/336/141 450/352/380
f 451/421/511 354/424/544 340/426/335
f 182/98/336 340/426/335 354/424/544
f 146/350/312 355/357/399 406/343/231
f 51/363/96 355/357/399 146/350/312
f 30/99/370 193/105/369 356/113/477
f 356/113/477 193/105/369 338/120/34
f 113/30/345 357/9/264 75/23/346
f 311/19/117 75/23/346 357/9/264
f 56/50/546 484/41/200 358/60/191
f 56/50/546 358/60/191 100/68/190
f 130/440/363 333/547/360 359/538/46
f 359/538/46 551/443/252 130/440/363
f 360/465/330 266/466/520 244/464/341
f 360/465/330 244/464/341 49/463/331
f 361/492/505 225/494/7 475/491/9
f 332/498/486 225/494/7 361/492/505
f 32/215/124 362/219/450 443/223/171
f 362/219/450 326/218/447 455/229/446
f 184/320/144 363/444/373 128/298/145
f 458/445/496 550/345/143 363/444/373
f 364/16/459 381/21/22 12/27/21
f 311/19/117 364/16/459 504/22/238
f 365/279/497 350/277/19 8/559/18
f 165/280/83 350/277/19 365/279/497
f 366/64/411 70/54/390 425/73/547
f 532/74/389 425/73/547 330/95/480
f 27/161/12 367/156/383 467/159/414
f 477/149/86 72/154/95 152/163/92
f 138/24/285 368/17/372 264/18/286
f 369/104/463 33/556/348 218/119/219
f 470/130/165 405/109/106 218/119/219
f 225/494/7 111/499/487 370/496/20
f 111/499/487 266/466/520 370/496/20
f 284/478/375 295/497/536 371/495/506
f 371/495/506 295/497/536 361/492/505
f 155/244/419 203/238/451 372/237/475
f 372/237/475 203/238/451 290/222/448
f 373/332/167 63/339/162 215/316/493
f 373/332/167 527/554/169 63/339/162
f 374/143/211 156/126/314 133/127/212
f 314/136/421 156/126/314 374/143/211
f 375/153/299 252/145/518 93/436/181
f 14/433/180 375/153/299 93/436/181
f 81/550/161 376/539/262 510/540/261
f 376/539/262 81/550/161 463/543/462
f 377/231/131 259/259/130 109/235/481
f 202/225/270 377/231/131 109/235/481
f 378/330/242 352/322/210 74/307/151
f 379/557/548 365/279/497 8/559/18
f 511/282/432 8/275/18 305/278/259
f 300/248/476 92/260/69 380/252/71
f 300/248/476 380/252/71 155/244/419
f 381/21/22 17/52/56 387/42/58
f 261/397/115 324/395/175 382/179/147
f 494/212/149 261/397/115 382/179/147
f 383/157/179 177/158/354 118/160/11
f 177/158/354 383/157/179 62/148/213
f 384/62/445 10/70/251 289/53/400
f 495/43/444 387/42/58 384/62/445
f 142/40/412 385/59/289 35/49/404
f 530/58/395 385/59/289 142/40/412
f 386/272/111 445/269/469 331/257/474
f 445/269/469 386/272/111 202/225/270
f 384/62/445 387/42/58 10/70/251
f 10/70/251 387/42/58 232/81/248
f 409/96/342 112/103/306 388/88/332
f 388/88/332 112/103/306 297/66/305
f 327/294/384 389/558/377 511/282/432
f 365/279/497 379/557/548 389/287/377
f 28/313/50 390/284/240 15/292/51
f 15/292/51 390/284/240 345/288/430
f 391/232/31 519/384/482 372/237/475
f 290/222/448 391/232/31 372/237/475
f 103/513/545 431/515/543 392/514/393
f 140/508/155 103/513/545 392/514/393
f 486/360/381 219/356/382 393/348/495
f 195/341/326 199/347/479 505/333/328
f 394/460/528 315/386/291 269/469/177
f 126/471/308 394/460/528 269/469/177
f 472/533/201 57/531/54 404/180/53
f 347/174/500 472/533/201 404/180/53
f 76/518/158 396/522/63 312/520/471
f 312/520/471 396/522/63 344/381/247
f 397/97/72 466/80/74 35/49/404
f 385/59/289 508/67/549 35/49/404
f 211/354/277 398/355/276 195/341/326
f 398/355/276 199/347/479 195/341/326
f 272/138/302 252/145/518 399/128/316
f 213/118/303 272/138/302 399/128/316
f 400/36/344 75/23/346 181/29/243
f 137/44/196 400/36/344 181/29/243
f 401/484/4 2/485/25 1/486/5
f 2/485/25 401/484/4 19/473/136
f 83/430/8 325/431/265 402/429/349
f 115/555/220 402/429/349 325/431/265
f 11/409/268 386/272/111 403/411/113
f 395/528/10 222/166/195 404/180/53
f 383/157/179 395/528/10 404/180/53
f 405/109/106 369/104/463 218/119/219
f 405/109/106 230/91/337 369/104/463
f 406/343/231 277/334/230 242/328/66
f 242/328/66 321/335/397 406/343/231
f 407/111/315 108/102/460 544/117/126
f 407/111/315 96/112/343 409/96/342
f 408/256/442 346/267/187 53/271/439
f 503/416/438 416/415/527 53/271/439
f 409/96/342 507/87/437 108/102/460
f 407/111/315 409/96/342 108/102/460
f 217/338/492 166/331/491 419/301/509
f 217/338/492 419/301/509 215/316/493
f 117/402/114 258/405/353 411/399/523
f 412/188/282 293/197/537 40/201/279
f 412/188/282 469/194/317 293/197/537
f 18/217/166 172/221/366 413/213/122
f 413/213/122 172/221/366 335/214/535
f 283/189/227 79/186/226 414/181/209
f 79/186/226 457/171/256 414/181/209
f 415/276/260 8/275/18 7/561/17
f 416/415/527 408/256/442 53/271/439
f 265/413/440 408/256/442 416/415/527
f 417/379/88 22/378/80 260/526/79
f 42/524/296 417/379/88 540/525/426
f 292/541/222 418/537/271 57/531/54
f 418/537/271 292/541/222 65/546/224
f 410/309/163 419/301/509 319/293/152
f 410/309/163 215/316/493 419/301/509
f 222/166/195 27/161/12 420/164/415
f 306/170/499 222/166/195 420/164/415
f 517/505/550 186/507/320 129/502/339
f 517/505/550 129/502/339 284/478/375
f 508/67/549 499/434/298 397/97/72
f 397/97/72 35/49/404 508/67/549
f 423/3/3 238/8/516 263/5/263
f 232/81/248 47/506/57 424/90/249
f 232/81/248 424/90/249 10/70/251
f 70/54/390 150/84/410 425/73/547
f 150/84/410 434/94/188 425/73/547
f 426/536/202 16/459/533 334/544/223
f 292/541/222 426/536/202 334/544/223
f 246/253/551 155/244/419 427/261/186
f 442/254/521 318/242/452 453/249/453
f 328/173/362 428/172/150 38/183/280
f 428/172/150 441/178/324 38/183/280
f 190/69/81 429/51/407 148/61/405
f 82/7/199 430/4/76 153/1/1
f 6/11/77 430/4/76 82/7/199
f 158/519/234 392/514/393 431/515/543
f 431/515/543 312/520/471 158/519/234
f 432/193/28 471/200/457 243/205/461
f 432/193/28 243/205/461 280/191/409
f 433/410/269 386/272/111 84/407/267
f 552/404/116 84/407/267 117/402/114
f 425/73/547 434/94/188 330/95/480
f 434/94/188 267/108/40 330/95/480
f 94/493/119 77/422/121 435/427/173
f 77/422/121 531/420/120 436/417/216
f 436/417/216 451/421/511 77/422/121
f 539/419/218 451/421/511 436/417/216
f 231/33/408 23/38/392 437/26/284
f 286/20/406 231/33/408 437/26/284
f 504/22/238 171/34/23 438/28/118
f 495/43/444 171/34/23 387/42/58
f 37/377/134 439/373/182 116/362/311
f 37/377/134 89/375/287 439/373/182
f 46/230/334 506/247/170 440/240/132
f 46/230/334 440/240/132 377/231/131
f 441/178/324 282/185/318 101/187/281
f 282/185/318 441/178/324 478/175/241
f 442/254/521 453/249/453 480/262/552
f 442/254/521 480/262/552 346/267/187
f 535/239/365 443/223/171 123/234/529
f 455/229/446 34/233/128 123/234/529
f 253/135/323 444/467/61 13/131/60
f 253/135/323 91/383/59 444/467/61
f 331/257/474 445/269/469 36/264/466
f 36/264/466 445/269/469 254/263/468
f 532/74/389 54/92/435 446/83/197
f 54/92/435 358/60/191 446/83/197
f 179/195/456 432/193/28 447/190/228
f 432/193/28 25/182/27 447/190/228
f 448/325/100 106/318/424 29/324/101
f 448/325/100 159/304/418 106/318/424
f 308/314/142 39/321/67 449/306/52
f 28/313/50 449/306/52 39/321/67
f 132/353/185 450/352/380 353/365/301
f 486/360/381 353/365/301 450/352/380
f 435/427/173 451/421/511 424/90/249
f 451/421/511 435/427/173 77/422/121
f 194/300/385 452/305/378 389/558/377
f 453/249/453 459/268/553 480/262/552
f 453/249/453 155/244/419 246/253/551
f 355/357/399 67/361/98 454/349/229
f 455/229/446 123/234/529 443/223/171
f 362/219/450 455/229/446 443/223/171
f 456/474/137 19/473/136 257/476/352
f 456/474/137 257/476/352 99/367/310
f 251/176/255 414/181/209 457/171/256
f 72/154/95 251/176/255 457/171/256
f 234/342/329 458/445/496 184/320/144
f 458/445/496 363/444/373 184/320/144
f 246/253/551 459/268/553 453/249/453
f 246/253/551 427/261/186 459/268/553
f 284/478/375 460/472/135 68/479/361
f 460/472/135 323/512/159 68/479/361
f 461/142/85 60/123/38 304/133/347
f 461/142/85 544/117/126 60/123/38
f 462/270/295 235/266/246 42/524/296
f 462/270/295 42/524/296 322/483/428
f 463/543/462 122/535/13 376/539/262
f 463/543/462 551/443/252 122/535/13
f 125/216/140 464/220/333 202/225/270
f 210/208/125 464/220/333 125/216/140
f 337/455/215 523/454/504 465/453/501
f 465/453/501 215/316/493 337/455/215
f 466/80/74 190/69/81 148/61/405
f 466/80/74 148/61/405 35/49/404
f 477/149/86 152/163/92 467/159/414
f 188/165/110 467/159/414 152/163/92
f 93/436/181 162/152/489 468/162/356
f 383/157/179 468/162/356 479/155/429
f 285/198/473 469/194/317 280/191/409
f 469/194/317 285/198/473 293/197/537
f 218/119/219 9/470/221 470/130/165
f 269/469/177 470/130/165 9/470/221
f 175/204/37 335/214/535 471/200/457
f 329/210/449 471/200/457 335/214/535
f 288/458/534 472/533/201 347/174/500
f 472/533/201 288/458/534 426/536/202
f 473/351/507 303/358/313 321/335/397
f 299/364/64 303/358/313 473/351/507
f 474/346/325 448/325/100 102/340/99
f 4/475/232 475/491/9 19/473/136
f 475/491/9 2/485/25 19/473/136
f 256/511/156 392/514/393 476/516/233
f 392/514/393 158/519/234 476/516/233
f 477/149/86 367/156/383 144/137/87
f 467/159/414 367/156/383 477/149/86
f 87/184/26 478/175/241 296/177/257
f 478/175/241 206/167/93 296/177/257
f 479/155/429 162/152/489 509/146/490
f 468/162/356 162/152/489 479/155/429
f 480/262/552 427/261/186 346/267/187
f 459/268/553 427/261/186 480/262/552
f 104/122/208 481/114/539 58/107/41
f 434/94/188 58/107/41 481/114/539
f 237/447/514 131/450/554 482/448/515
f 131/450/554 520/308/478 482/448/515
f 247/371/65 299/364/64 483/368/538
f 483/368/538 299/364/64 473/351/507
f 484/41/200 487/12/239 169/63/245
f 358/60/191 484/41/200 169/63/245
f 274/408/422 485/457/193 347/174/500
f 48/456/532 347/174/500 485/457/193
f 199/347/479 486/360/381 393/348/495
f 86/382/272 486/360/381 199/347/479
f 487/12/239 153/1/1 113/30/345
f 524/56/555 487/12/239 113/30/345
f 488/121/206 66/192/225 104/122/208
f 104/122/208 58/107/41 488/121/206
f 235/266/246 187/521/235 489/523/297
f 187/521/235 344/381/247 489/523/297
f 320/65/402 147/71/401 490/85/510
f 490/85/510 147/71/401 230/91/337
f 207/299/153 319/293/152 491/289/434
f 253/135/323 492/116/33 240/125/519
f 492/116/33 405/109/106 240/125/519
f 260/526/79 3/487/78 493/481/427
f 493/481/427 3/487/78 24/488/82
f 125/216/140 494/212/149 313/211/278
f 40/201/279 313/211/278 494/212/149
f 438/28/118 171/34/23 495/43/444
f 438/28/118 495/43/444 197/35/103
f 496/147/254 114/141/207 251/176/255
f 496/147/254 304/133/347 114/141/207
f 324/395/175 497/392/107 501/398/176
f 498/75/403 302/86/368 145/72/371
f 145/72/371 348/55/391 498/75/403
f 90/435/237 397/97/72 499/434/298
f 14/433/180 90/435/237 499/434/298
f 500/207/148 40/201/279 494/212/149
f 40/201/279 500/207/148 412/188/282
f 501/398/176 31/400/531 485/457/193
f 497/392/107 31/400/531 501/398/176
f 18/217/166 502/227/367 172/221/366
f 91/383/59 502/227/367 18/217/166
f 168/414/526 503/416/438 346/267/187
f 168/414/526 416/415/527 503/416/438
f 504/22/238 364/16/459 12/27/21
f 12/27/21 171/34/23 504/22/238
f 199/347/479 393/348/495 505/333/328
f 505/333/328 393/348/495 234/342/329
f 506/247/170 123/234/529 270/243/530
f 506/247/170 270/243/530 555/246/524
f 178/78/192 358/60/191 507/87/437
f 409/96/342 178/78/192 507/87/437
f 499/434/298 508/67/549 422/77/288
f 422/77/288 508/67/549 385/59/289
f 509/146/490 272/138/302 549/129/304
f 509/146/490 216/140/488 314/136/421
f 298/532/15 526/534/542 510/540/261
f 510/540/261 526/534/542 418/537/271
f 511/282/432 389/558/377 379/283/548
f 8/275/18 511/282/432 379/283/548
f 512/13/517 357/9/264 263/5/263
f 238/8/516 512/13/517 263/5/263
f 513/48/413 151/31/396 88/57/283
f 513/48/413 88/57/283 297/66/305
f 514/106/43 198/93/42 30/99/370
f 514/106/43 30/99/370 356/113/477
f 515/10/75 127/2/2 227/6/508
f 515/10/75 227/6/508 430/4/76
f 321/335/397 516/329/512 236/344/184
f 236/344/184 516/329/512 143/336/141
f 421/480/321 186/507/320 517/505/550
f 517/505/550 284/478/375 421/480/321
f 64/418/217 531/420/120 518/423/350
f 115/555/220 64/418/217 518/423/350
f 519/384/482 349/385/292 192/387/294
f 372/237/475 519/384/482 192/387/294
f 482/448/515 520/308/478 310/315/386
f 310/315/386 520/308/478 327/294/384
f 524/56/555 113/30/345 521/46/244
f 521/46/244 113/30/345 400/36/344
f 133/127/212 522/144/398 50/150/355
f 522/144/398 144/137/87 534/151/214
f 465/453/501 523/454/504 223/452/502
f 487/12/239 524/56/555 169/63/245
f 169/63/245 524/56/555 521/46/244
f 525/209/36 301/199/35 139/468/62
f 139/468/62 444/467/61 525/209/36
f 73/529/55 57/531/54 526/534/542
f 418/537/271 526/534/542 57/531/54
f 527/554/169 59/553/357 233/549/160
f 119/439/358 59/553/357 527/554/169
f 394/460/528 528/462/540 315/386/291
f 315/386/291 528/462/540 281/388/293
f 174/265/112 331/257/474 529/251/441
f 331/257/474 191/245/129 529/251/441
f 297/66/305 530/58/395 513/48/413
f 297/66/305 239/139/307 530/58/395
f 531/420/120 2/485/25 141/425/24
f 531/420/120 141/425/24 518/423/350
f 137/44/196 366/64/411 532/74/389
f 532/74/389 366/64/411 425/73/547
f 56/50/546 533/32/47 484/41/200
f 533/32/47 56/50/546 547/79/48
f 118/160/11 50/150/355 534/151/214
f 534/151/214 50/150/355 522/144/398
f 46/230/334 535/239/365 506/247/170
f 123/234/529 506/247/170 535/239/365
f 183/317/464 262/303/91 536/310/90
f 538/196/454 175/204/37 537/203/455
f 175/204/37 471/200/457 537/203/455
f 538/196/454 301/199/35 175/204/37
f 66/192/225 301/199/35 538/196/454
f 354/424/544 451/421/511 539/419/218
f 33/556/348 354/424/544 539/419/218
f 540/525/426 417/379/88 260/526/79
f 540/525/426 260/526/79 493/481/427
f 548/477/556 460/472/135 456/474/137
f 548/477/556 456/474/137 76/518/158
f 542/39/425 248/25/522 533/32/47
f 248/25/522 542/39/425 151/31/396
f 546/311/484 543/326/327 154/312/146
f 505/333/328 543/326/327 208/319/417
f 60/123/38 544/117/126 196/124/39
f 196/124/39 544/117/126 108/102/460
f 273/446/513 41/323/387 545/451/494
f 273/446/513 545/451/494 249/449/503
f 159/304/418 208/319/417 546/311/484
f 208/319/417 543/326/327 546/311/484
f 547/79/48 56/50/546 100/68/190
f 388/88/332 547/79/48 100/68/190
f 460/472/135 548/477/556 541/517/157
f 548/477/556 76/518/158 541/517/157
f 549/129/304 96/112/343 216/140/488
f 509/146/490 549/129/304 216/140/488
f 219/356/382 450/352/380 550/345/143
f 219/356/382 550/345/143 458/445/496
f 233/549/160 180/442/376 551/443/252
f 130/440/363 551/443/252 180/442/376
f 433/410/269 552/404/116 5/226/138
f 433/410/269 84/407/267 552/404/116
f 185/250/127 254/263/468 553/258/525
f 555/246/524 553/258/525 259/259/130
f 554/372/443 170/366/275 255/369/319
f 170/366/275 554/372/443 199/347/479
f 555/246/524 34/233/128 185/250/127
f 553/258/525 555/246/524 185/250/127
f 556/489/6 1/486/5 135/490/133
f 556/489/6 135/490/133 19/473/136
